<?xml version="1.0" encoding="UTF-8" standalone="no"?>
<!-- Created with Inkscape (http://www.inkscape.org/) -->

<svg
   xmlns:dc="http://purl.org/dc/elements/1.1/"
   xmlns:cc="http://creativecommons.org/ns#"
   xmlns:rdf="http://www.w3.org/1999/02/22-rdf-syntax-ns#"
   xmlns:svg="http://www.w3.org/2000/svg"
   xmlns="http://www.w3.org/2000/svg"
   xmlns:xlink="http://www.w3.org/1999/xlink"
   xmlns:sodipodi="http://sodipodi.sourceforge.net/DTD/sodipodi-0.dtd"
   xmlns:inkscape="http://www.inkscape.org/namespaces/inkscape"
   width="297mm"
   height="210mm"
   viewBox="0 0 297 210"
   version="1.1"
   id="svg8"
   sodipodi:docname="auth-factors.svg"
   inkscape:version="0.92.1 r15371">
  <defs
     id="defs2">
    <filter
       id="filter3370-9"
       style="color-interpolation-filters:sRGB">
      <feGaussianBlur
         inkscape:collect="always"
         stdDeviation="2.1991045"
         id="feGaussianBlur3372-3" />
    </filter>
    <filter
       id="filter3406-4"
       style="color-interpolation-filters:sRGB">
      <feGaussianBlur
         inkscape:collect="always"
         stdDeviation="0.85320467"
         id="feGaussianBlur3408-4" />
    </filter>
    <filter
       inkscape:collect="always"
       x="-0.13316"
       y="-0.17460001"
       width="1.2663"
       height="1.3492"
       id="filter7676">
      <feGaussianBlur
         inkscape:collect="always"
         stdDeviation="4.2217398"
         id="feGaussianBlur7678" />
    </filter>
    <filter
       inkscape:collect="always"
       id="filter7812">
      <feGaussianBlur
         inkscape:collect="always"
         stdDeviation="1.5536207"
         id="feGaussianBlur7814" />
    </filter>
    <style
       id="style7978"
       type="text/css">
   
    .fil1 {fill:#78382E;fill-rule:nonzero}
    .fil0 {fill:url(#id0)}
   
  </style>
    <linearGradient
       y2="955.33002"
       x2="2233.3899"
       y1="3329.1001"
       x1="4365.0898"
       gradientUnits="userSpaceOnUse"
       id="id0">
      <stop
         id="stop7980"
         style="stop-opacity:1; stop-color:#EBBFBF"
         offset="0" />
      <stop
         id="stop7982"
         style="stop-opacity:1; stop-color:#F1D2D2"
         offset="1" />
    </linearGradient>
    <linearGradient
       gradientTransform="translate(-1752.9528,-219.35547)"
       id="SVGID_5_-117"
       gradientUnits="userSpaceOnUse"
       x1="519.19232"
       y1="618.7749"
       x2="758.25372"
       y2="618.7749">
      <stop
         offset="0"
         style="stop-color:#e3e3e3"
         id="stop4386" />
      <stop
         offset="0.0584"
         style="stop-color:#e4e4e4"
         id="stop4388" />
      <stop
         offset="0.0584"
         style="stop-color:#e7e7e7"
         id="stop4390" />
      <stop
         offset="0.0584"
         style="stop-color:#f2f2f2"
         id="stop4392" />
      <stop
         offset="0.1067"
         style="stop-color:#fbfbfb"
         id="stop4394" />
      <stop
         offset="0.1215"
         style="stop-color:#f6f6f6"
         id="stop4396" />
      <stop
         offset="0.1464"
         style="stop-color:#eaeaea"
         id="stop4398" />
      <stop
         offset="0.1784"
         style="stop-color:#d5d5d5"
         id="stop4400" />
      <stop
         offset="0.2158"
         style="stop-color:#b8b8b8"
         id="stop4402" />
      <stop
         offset="0.2472"
         style="stop-color:#9e9e9e"
         id="stop4404" />
      <stop
         offset="0.2977"
         style="stop-color:#a0a0a0"
         id="stop4406" />
      <stop
         offset="0.328"
         style="stop-color:#a6a6a6"
         id="stop4408" />
      <stop
         offset="0.3531"
         style="stop-color:#b2b2b2"
         id="stop4410" />
      <stop
         offset="0.3752"
         style="stop-color:#c2c2c2"
         id="stop4412" />
      <stop
         offset="0.3953"
         style="stop-color:#d6d6d6"
         id="stop4414" />
      <stop
         offset="0.3989"
         style="stop-color:#dbdbdb"
         id="stop4416" />
      <stop
         offset="0.4355"
         style="stop-color:#d3d3d3"
         id="stop4418" />
      <stop
         offset="0.4971"
         style="stop-color:#bdbdbd"
         id="stop4420" />
      <stop
         offset="0.5757"
         style="stop-color:#999999"
         id="stop4422" />
      <stop
         offset="0.6461"
         style="stop-color:#747474"
         id="stop4424" />
      <stop
         offset="0.6958"
         style="stop-color:#777777"
         id="stop4426" />
      <stop
         offset="0.7416"
         style="stop-color:#7a7a7a"
         id="stop4428" />
      <stop
         offset="0.7446"
         style="stop-color:#777777"
         id="stop4430" />
      <stop
         offset="0.7682"
         style="stop-color:#646464"
         id="stop4432" />
      <stop
         offset="0.7925"
         style="stop-color:#545454"
         id="stop4434" />
      <stop
         offset="0.8172"
         style="stop-color:#494949"
         id="stop4436" />
      <stop
         offset="0.8429"
         style="stop-color:#424242"
         id="stop4438" />
      <stop
         offset="0.8708"
         style="stop-color:#404040"
         id="stop4440" />
      <stop
         offset="0.8714"
         style="stop-color:#424242"
         id="stop4442" />
      <stop
         offset="0.8839"
         style="stop-color:#5d5d5d"
         id="stop4444" />
      <stop
         offset="0.8967"
         style="stop-color:#737373"
         id="stop4446" />
      <stop
         offset="0.9099"
         style="stop-color:#838383"
         id="stop4448" />
      <stop
         offset="0.9234"
         style="stop-color:#8c8c8c"
         id="stop4450" />
      <stop
         offset="0.9382"
         style="stop-color:#8f8f8f"
         id="stop4452" />
      <stop
         offset="0.9413"
         style="stop-color:#969696"
         id="stop4454" />
      <stop
         offset="0.9523"
         style="stop-color:#acacac"
         id="stop4456" />
      <stop
         offset="0.9636"
         style="stop-color:#bdbdbd"
         id="stop4458" />
      <stop
         offset="0.9751"
         style="stop-color:#cacaca"
         id="stop4460" />
      <stop
         offset="0.987"
         style="stop-color:#d1d1d1"
         id="stop4462" />
      <stop
         offset="1"
         style="stop-color:#d3d3d3"
         id="stop4464" />
    </linearGradient>
    <linearGradient
       spreadMethod="reflect"
       gradientUnits="userSpaceOnUse"
       y2="193.5"
       x2="378.5"
       y1="97.5"
       x1="158.5"
       id="linearGradient4354"
       xlink:href="#SVGID_5_-117"
       inkscape:collect="always" />
    <linearGradient
       spreadMethod="reflect"
       gradientUnits="userSpaceOnUse"
       y2="193.5"
       x2="375.5"
       y1="361.5"
       x1="49.5"
       id="linearGradient4362"
       xlink:href="#SVGID_5_-117"
       inkscape:collect="always" />
    <filter
       height="1.047983"
       y="-0.023991495"
       width="1.048017"
       x="-0.024008511"
       id="filter4378"
       style="color-interpolation-filters:sRGB"
       inkscape:collect="always">
      <feGaussianBlur
         id="feGaussianBlur4380"
         stdDeviation="3.6012767"
         inkscape:collect="always" />
    </filter>
    <clipPath
       id="clipPath4401"
       clipPathUnits="userSpaceOnUse">
      <path
         inkscape:connector-curvature="0"
         style="fill:none;fill-opacity:1;fill-rule:nonzero;stroke:#000000;stroke-width:0;stroke-linecap:butt;stroke-linejoin:round;stroke-miterlimit:4;stroke-dasharray:none;stroke-opacity:1"
         d="m 50.610073,26.41861 c 0.495096,0 0.987206,0.18806 1.366574,0.56744 l 108.767933,108.7632 c 0.75873,0.75873 0.75873,1.97914 0,2.73788 l -9.27757,9.27757 c -0.75874,0.75873 -1.97914,0.75873 -2.73788,0 L 39.961199,39.0015 c -0.758732,-0.75874 -0.758732,-1.97915 0,-2.73788 l 9.277574,-9.27757 c 0.379364,-0.37937 0.876206,-0.56744 1.3713,-0.56744 z"
         id="path4403" />
    </clipPath>
    <filter
       height="1.0720019"
       y="-0.036000936"
       width="1.0719981"
       x="-0.035999064"
       id="filter4409"
       style="color-interpolation-filters:sRGB"
       inkscape:collect="always">
      <feGaussianBlur
         id="feGaussianBlur4411"
         stdDeviation="1.8287746"
         inkscape:collect="always" />
    </filter>
  </defs>
  <sodipodi:namedview
     id="base"
     pagecolor="#ffffff"
     bordercolor="#666666"
     borderopacity="1.0"
     inkscape:pageopacity="0.0"
     inkscape:pageshadow="2"
     inkscape:zoom="0.49497475"
     inkscape:cx="622.95064"
     inkscape:cy="155.88314"
     inkscape:document-units="mm"
     inkscape:current-layer="layer1"
     showgrid="false"
     inkscape:window-width="1920"
     inkscape:window-height="1016"
     inkscape:window-x="0"
     inkscape:window-y="27"
     inkscape:window-maximized="1" />
  <metadata
     id="metadata5">
    <rdf:RDF>
      <cc:Work
         rdf:about="">
        <dc:format>image/svg+xml</dc:format>
        <dc:type
           rdf:resource="http://purl.org/dc/dcmitype/StillImage" />
        <dc:title></dc:title>
      </cc:Work>
    </rdf:RDF>
  </metadata>
  <g
     inkscape:label="Layer 1"
     inkscape:groupmode="layer"
     id="layer1"
     transform="translate(0,-87)">
    <g
       id="g9439"
       transform="translate(5.8799296,3.2072343)">
      <g
         id="layer4"
         inkscape:label="globo"
         transform="matrix(0.11730389,0,0,0.11730389,177.88852,165.03848)">
        <g
           id="g2440">
          <path
             inkscape:connector-curvature="0"
             id="path2261"
             sodipodi:nodetypes="ccccccccccccccccccccccccccccccccccccccccccccccc"
             style="fill:#000000;fill-rule:evenodd;stroke:#000000;stroke-width:1px"
             d="m 21.218,263.5 c 2.737,-12.35 37.021,-28.28 60.167,-39.52 26.645,-46.93 68.325,-80.41 111.88,-112.21 -51.92,7.81 -100.86,24.26 -148.04,56.91 59.48,-41.55 121.43,-75.807 216.82,-79.951 l 91.46,-0.678 c 21.38,-5.184 32.66,-16.789 44.38,-28.118 -4.2,9.349 -6.62,18.213 -20.32,30.151 12.92,-3.205 20.41,-10.292 27.1,-17.955 -4.57,6.576 -5.11,11.945 -17.96,21.004 l 28.46,-0.339 c 25.5,-6.114 44.63,-17.003 63.01,-28.457 -10.59,16.009 -22.73,24.348 -34.55,33.539 40.62,13.124 67.56,10.024 94.52,-8.47 -7.3,7.566 -14.96,15.134 -28.46,22.694 25.46,2.35 53.92,-12.342 81.98,-24.726 -14.83,14.596 -27.85,29.846 -52.17,40.996 48.15,12.71 71.44,2.47 96.89,-5.76 -11.16,10.56 -22.43,21.08 -40.65,28.11 37.4,12.79 56.79,4.37 79.61,0 -12.06,9.29 -22.77,19.31 -44.38,23.38 25.48,7.84 49.03,10.2 69.11,2.71 -19.25,17.67 -41.63,27.5 -68.09,27.1 8.46,10.53 23.72,14.64 48.44,9.83 -17.99,6.23 -36.06,12.35 -66.4,2.71 l -5.08,8.47 c 19.47,7.38 26.01,16.61 33.2,25.74 -12.79,-10.86 -28.34,-15.5 -44.72,-18.29 -6.19,6.18 -8.98,7.81 -12.87,10.5 21.19,8.13 28.57,16.26 37.6,24.39 -15.36,-8.94 -30.71,-15.21 -46.07,-16.94 l -12.2,6.44 c 16.14,9.54 24.89,14.46 36.25,30.15 -16.32,-9.92 -32.53,-19.96 -60.3,-19.31 l -26.42,14.91 c 10.56,5.18 20.7,11.21 29.47,19.98 -24.73,-13.6 -49.24,-19.23 -78.94,-7.11 16.26,8.84 28.24,21.43 37.27,36.59 -18.76,-16.51 -38.62,-27.27 -60.98,-31.17 8.51,6.44 12.79,12.87 15.92,19.31 -17.99,-14.81 -39.93,-19.97 -66.06,-14.91 9.71,5.64 16.91,11.49 20.67,20.67 -23.56,-20.69 -63.42,-23.53 -105.7,-23.71 -54.64,0.99 -103.31,-8.91 -150.08,-21.69 -14.53,-1.43 -21.6,1.8 -29.13,4.75 -19.8,3.03 -39.557,5.69 -57.591,-5.42 -20.755,-1.85 -43.668,-4.53 -47.041,-16.3 z" />
          <path
             inkscape:connector-curvature="0"
             id="path2265"
             sodipodi:nodetypes="ccccccc"
             style="fill:#666666;fill-rule:evenodd"
             d="m 81.471,268.62 c 9.993,12.56 26.989,14.62 44.039,16.6 7.61,-2.12 9.6,-5.45 28.8,-5.08 51.13,13.78 124.4,17.35 210.71,14.9 86.27,4.98 159.45,-21.93 216.82,-87.4 C 512.68,176.07 448.22,139.45 357.57,131.75 159.82,106.27 163.46,253.48 81.47,268.62 Z" />
          <path
             inkscape:connector-curvature="0"
             id="path2272"
             sodipodi:nodetypes="ccccccc"
             style="opacity:0.89674;fill:#999999;fill-rule:evenodd"
             d="m 97.732,264.21 c 14.908,2.26 28.908,-1.35 42.008,1.36 l 64.37,23.03 c -8.71,4.78 -51.75,-11.45 -57.59,-8.13 l -19.65,4.07 c -16.72,-1.8 -34.525,-0.69 -46.077,-16.26 z" />
          <path
             inkscape:connector-curvature="0"
             id="path2278"
             sodipodi:nodetypes="cccc"
             style="fill:#808080;fill-rule:evenodd"
             d="m 133.64,242.53 c 55.79,-99.91 127.73,-115.69 193.78,-113.15 90.12,2.02 164.86,34.8 237.14,72.5 -82.15,127.31 -408.08,87.76 -430.92,40.65 z" />
          <path
             inkscape:connector-curvature="0"
             id="path2276"
             style="fill:none;stroke:#000000;stroke-width:1px"
             d="m 135,241.85 c 0.22,0 0.45,0 0,0 z" />
          <path
             inkscape:connector-curvature="0"
             id="path2280"
             sodipodi:nodetypes="ccc"
             style="opacity:0.79891004;fill:#e6e6e6;fill-rule:evenodd"
             d="M 153.97,241.18 C 216.04,121.99 475.02,153.26 526.62,228.3 469.7,322.5 125.96,284.75 153.97,241.18 Z" />
          <g
             id="g2413">
            <ellipse
               ry="68.093216"
               rx="74.529884"
               cy="417.85684"
               cx="299.47464"
               id="path2283"
               style="fill:#000000;fill-rule:evenodd;stroke:#000000;stroke-width:1px"
               transform="matrix(1.6099,0,0,1.5133,-128.61,-434.87)" />
            <ellipse
               ry="23.714054"
               rx="31.167042"
               cy="428.3588"
               cx="371.97186"
               id="path3310"
               style="fill:#216778;stroke:#000000;filter:url(#filter7676)"
               transform="matrix(2.9649,0,0,3.4253,-751.06,-1270.5)" />
            <ellipse
               ry="26.424232"
               rx="27.101776"
               cy="408.70999"
               cx="394.33084"
               id="path4281"
               style="fill:#000000"
               transform="matrix(1.1963,0,0,1.2014,-123.33,-300.65)" />
            <path
               inkscape:connector-curvature="0"
               id="path4285"
               sodipodi:nodetypes="ccccccc"
               style="opacity:0.44022001;fill:#d5fff6;fill-rule:evenodd"
               d="m 391.79,157.16 c 14.53,6.15 17.63,16.11 21.68,25.75 14.16,76.73 -40.67,88.51 -69.79,90.11 -46.17,-6.75 -91.61,-40.15 -59.62,-109.76 2.41,-6.51 19.38,-13.02 27.78,-12.87 -33.37,56.36 1.13,81.01 30.49,85.37 42.37,-0.32 66.01,-24.1 49.46,-78.6 z" />
            <path
               inkscape:connector-curvature="0"
               id="path4287"
               sodipodi:nodetypes="cccc"
               style="fill:#d5fff6;fill-rule:evenodd;filter:url(#filter7812)"
               d="m 298.96,157.84 c -14.83,41.8 -4.22,61.97 16.94,73.17 40.63,18.43 81.22,1.96 84.02,-37.26 -16,66.34 -125.58,49.46 -100.96,-35.91 z" />
            <g
               id="g2246"
               style="fill:#ffffff"
               transform="matrix(1.0471,0,0,0.81314,-227.07,-21.505)">
              <path
                 inkscape:connector-curvature="0"
                 id="path9108"
                 style="fill:#ffffff;fill-rule:evenodd"
                 d="m 508.02,261.68 -9.28,-0.33 -13.06,2.99 13.22,-0.34 z" />
              <g
                 id="g9157"
                 style="fill:#ffffff">
                <path
                   inkscape:connector-curvature="0"
                   id="path9090"
                   sodipodi:nodetypes="cccccc"
                   style="fill:#ffffff;fill-rule:evenodd"
                   d="m 566.73,306.45 -1.17,9.27 2.93,13.26 0.21,-4.71 0.38,-8.55 z" />
                <path
                   inkscape:connector-curvature="0"
                   id="path9092"
                   style="fill:#ffffff;fill-rule:evenodd"
                   d="m 532.12,306.87 -4.35,8.23 -1.91,13.38 5.2,-12.14 z" />
                <path
                   inkscape:connector-curvature="0"
                   id="path9094"
                   style="fill:#ffffff;fill-rule:evenodd"
                   d="m 544.3,310.85 -1.18,9.23 2.94,13.19 0.58,-13.19 z" />
                <path
                   inkscape:connector-curvature="0"
                   id="path9084"
                   style="fill:#ffffff;fill-rule:evenodd"
                   d="m 516.95,297.19 -7.07,6.06 -6.68,11.74 9.29,-9.38 z" />
                <path
                   inkscape:connector-curvature="0"
                   id="path9088"
                   style="fill:#ffffff;fill-rule:evenodd"
                   d="m 574.27,299.67 0.97,8.78 6.35,10.47 -2.56,-12.06 z" />
                <path
                   inkscape:connector-curvature="0"
                   id="path9096"
                   style="fill:#ffffff;fill-rule:evenodd"
                   d="m 580.73,291.94 4.66,8.06 10.32,8.72 -7.52,-10.85 z" />
                <path
                   inkscape:connector-curvature="0"
                   id="path9098"
                   style="fill:#ffffff;fill-rule:evenodd"
                   d="m 509.59,286.63 -6.97,6.13 -7.44,11.15 9.37,-9.33 z" />
                <path
                   inkscape:connector-curvature="0"
                   id="path9100"
                   style="fill:#ffffff;fill-rule:evenodd"
                   d="m 505.79,277.57 -8.51,3.85 -8.99,10.31 11.41,-6.64 z" />
                <path
                   inkscape:connector-curvature="0"
                   id="path9102"
                   style="fill:#ffffff;fill-rule:evenodd"
                   d="m 506.39,251.66 -8.1,-4.55 -12.98,-3.31 11.91,5.74 z" />
                <path
                   inkscape:connector-curvature="0"
                   id="path9104"
                   style="fill:#ffffff;fill-rule:evenodd"
                   d="m 511.42,238.41 -6.09,-7.04 -11.79,-6.62 9.43,9.24 z" />
                <path
                   inkscape:connector-curvature="0"
                   id="path9110"
                   style="fill:#ffffff;fill-rule:evenodd"
                   d="m 503.02,273.51 -9.33,-0.12 -12.85,2.52 13.22,-0.46 z" />
              </g>
            </g>
          </g>
        </g>
      </g>
      <g
         transform="matrix(0.00912087,0,0,0.00912087,21.77036,166.62735)"
         id="g8010"
         style="clip-rule:evenodd;fill-rule:evenodd;image-rendering:optimizeQuality;shape-rendering:geometricPrecision;text-rendering:geometricPrecision">
        <g
           id="Layer_x0020_1">
          <metadata
             id="CorelCorpID_0Corel-Layer" />
          <path
             style="fill:url(#id0)"
             inkscape:connector-curvature="0"
             class="fil0"
             d="m 5641,1068 c 136,79 263,201 335,323 57,96 92,211 93,307 1,38 0,37 35,58 45,26 56,35 82,65 85,97 148,219 186,358 5,17 9,23 20,35 78,83 138,245 172,460 13,90 22,182 26,303 2,42 4,93 6,114 3,50 3,185 0,241 -27,414 -165,707 -401,850 -68,42 -148,72 -235,89 -47,9 -103,13 -172,13 -27,0 -253,-12 -505,-38 -178,-19 -370,-50 -515,-63 -181,-17 -81,13 -242,3 -183,-12 -264,-57 -444,-58 -255,-1 -441,8 -731,1 -183,-4 -325,57 -363,65 -115,24 -242,45 -330,53 -37,3 -61,4 -108,3 -33,-2 -107,-3 -165,-3 -111,0 -134,-2 -211,-16 -35,-6 -105,-23 -141,-34 -151,-46 -312,-133 -445,-242 -26,-21 -51,-38 -82,-55 -75,-44 -121,-78 -161,-120 -61,-65 -82,-121 -71,-186 3,-18 3,-20 -5,-40 -7,-17 -10,-29 -12,-56 l -4,-35 -17,-16 c -49,-47 -78,-89 -91,-130 l -5,-15 -56,-10 c -169,-31 -341,-90 -464,-159 -80,-44 -140,-88 -196,-143 -61,-60 -99,-112 -133,-181 -25,-51 -38,-90 -48,-139 -4,-20 -8,-40 -10,-44 -1,-4 -12,-17 -24,-30 C 157,2543 99,2459 61,2383 11,2281 -9,2184 3,2101 c 8,-48 21,-85 51,-135 l 5,-9 -11,-15 c -15,-19 -24,-38 -32,-64 -6,-19 -7,-25 -7,-72 1,-47 1,-54 8,-79 16,-60 45,-124 83,-188 19,-30 26,-45 35,-73 47,-142 120,-268 204,-353 29,-29 65,-58 95,-76 26,-15 192,-171 240,-227 106,-121 220,-224 320,-291 124,-82 223,-111 314,-92 8,2 11,0 32,-19 77,-70 164,-128 268,-180 148,-73 299,-115 467,-128 72,-6 187,-4 259,5 22,3 23,3 49,-7 55,-21 121,-39 188,-53 81,-17 143,-23 236,-25 82,-2 145,2 215,14 l 39,6 20,-5 c 123,-33 265,-43 391,-28 115,13 222,45 325,97 l 29,15 32,-3 c 60,-5 174,1 257,14 107,18 237,57 327,99 18,9 37,14 62,20 133,27 278,74 401,127 235,103 415,242 522,404 14,22 32,43 55,67 18,19 42,44 51,55 35,41 64,92 73,128 3,12 6,22 6,22 1,0 14,8 29,16 z"
             id="path7988" />
          <g
             id="g7992">
            <path
               style="fill:#78382e;fill-rule:nonzero"
               inkscape:connector-curvature="0"
               class="fil1"
               d="m 2988,4194 c -145,31 -308,60 -438,56 -218,-8 -304,12 -517,-53 -151,-46 -312,-133 -445,-242 -84,-69 -161,-88 -243,-175 -61,-65 -82,-121 -71,-186 6,-34 -12,-38 -17,-96 -4,-39 2,-29 -21,-51 -57,-55 -79,-93 -96,-145 l -56,-10 c -309,-57 -655,-200 -793,-483 -51,-105 -43,-144 -58,-183 -1,-4 -12,-17 -24,-30 C 157,2543 99,2459 61,2383 11,2281 -9,2184 3,2101 c 8,-50 26,-93 56,-144 -19,-25 -33,-46 -43,-79 -11,-34 -8,-116 1,-151 36,-133 91,-180 118,-261 57,-172 158,-346 299,-429 26,-15 192,-171 240,-227 155,-176 421,-427 634,-383 8,2 11,0 32,-19 197,-178 466,-287 735,-308 72,-6 187,-4 259,5 22,3 23,3 49,-7 193,-72 433,-99 639,-64 36,6 29,9 59,1 238,-63 497,-42 716,69 35,18 22,15 61,12 60,-5 174,1 257,14 107,18 237,57 327,99 18,9 37,14 62,20 352,73 737,250 923,531 25,37 78,90 106,122 35,41 64,92 73,128 8,30 3,20 35,38 136,79 263,201 335,323 57,96 92,211 93,307 1,38 0,37 35,58 45,26 56,35 82,65 85,97 148,219 186,358 5,17 9,23 20,35 143,152 188,500 198,763 5,128 14,226 6,355 -33,500 -227,859 -636,939 -47,9 -103,13 -172,13 -27,0 -253,-12 -505,-38 -178,-19 -370,-50 -515,-63 -181,-17 -81,13 -242,3 -183,-12 -264,-57 -444,-58 -255,-1 -441,8 -731,1 -183,-4 -325,57 -363,65 z M 3315,702 c 9,0 126,-68 151,-82 48,-29 55,5 23,16 -79,46 -134,76 -175,96 -43,21 -43,21 -72,50 -29,29 -101,95 -122,127 -38,58 -76,166 -84,237 -4,34 -4,108 0,148 7,75 16,120 39,194 25,79 35,93 12,101 -20,6 -32,-13 -38,-27 -9,-20 -102,-133 -122,-174 -10,-20 -34,-80 -34,-85 0,-57 46,20 48,24 8,20 19,46 26,57 12,21 37,57 40,57 1,0 0,-16 -4,-34 -7,-37 -14,-93 -17,-136 -2,-32 -49,-98 -86,-108 -51,-13 -90,-34 -159,-85 -9,-7 -46,-47 -6,-47 5,0 108,82 170,96 10,2 23,6 30,8 7,3 33,36 34,36 2,0 -37,-62 -54,-89 -22,-32 -66,-90 -108,-141 -19,-23 -33,-43 -33,-45 23,-57 114,88 126,104 93,122 85,152 94,105 9,-49 36,-129 63,-181 21,-42 35,-60 84,-108 112,-110 139,-143 154,-188 7,-19 6,-38 -2,-46 L 3126,448 c -31,-28 -55,-43 -100,-63 -105,-47 -17,-61 35,-36 41,19 65,35 95,63 14,12 52,43 86,69 98,74 102,78 105,122 6,26 -3,65 -32,99 z m 130,-204 c -13,-8 -35,-22 -46,-36 -13,-17 -43,-76 -71,-139 -23,-52 -38,-76 -76,-113 -108,-108 -265,-143 -399,-77 -41,21 -53,31 -95,83 -38,48 -38,49 -35,57 6,15 8,10 27,-8 26,-24 66,-51 104,-69 44,-20 133,-55 137,-54 4,2 17,27 9,32 -23,17 -153,50 -221,114 -12,11 -51,56 -65,75 -3,4 -37,117 -40,130 -3,16 14,20 30,31 4,3 7,2 19,-5 23,-12 75,-46 95,-62 79,-62 47,32 -46,89 l -113,62 c -3,3 -14,16 -23,31 -30,45 -69,100 -92,128 -23,31 -40,48 -97,99 l -38,33 -35,110 c -5,29 -6,240 -1,309 1,25 -4,76 2,94 22,70 -17,163 -9,252 3,32 3,32 28,88 30,68 28,48 17,108 -7,36 -11,76 -23,111 -22,60 -66,75 -46,-15 13,-56 27,-127 27,-136 0,-4 -10,-29 -21,-55 -27,-59 -30,-73 -30,-131 0,-36 1,-53 8,-92 10,-60 10,-99 1,-121 -18,-48 -70,-100 -156,-159 -39,-26 -76,-45 -107,-54 -48,-14 -159,-20 -219,-13 -251,32 -275,245 -401,406 -14,17 -29,45 -42,51 -43,18 -37,57 -222,79 -45,6 -203,5 -241,-1 -61,-9 -31,-55 -17,-51 32,9 197,11 261,3 98,-12 137,-26 182,-66 22,-19 30,-33 49,-83 16,-43 19,-66 15,-106 -8,-88 -35,-132 -131,-217 -64,-56 -92,-91 -114,-142 -72,-163 7,-194 18,-116 17,119 50,154 148,242 50,45 78,79 100,123 17,34 24,78 31,136 64,-113 118,-216 236,-271 23,-11 76,-28 87,-29 -6,4 -34,-185 -15,-246 3,-42 7,-89 8,-105 6,-10 6,-61 32,-52 27,9 -2,142 -4,161 -7,83 -16,168 32,235 69,-5 168,-1 225,17 75,24 162,89 243,165 -4,-81 -7,-246 -1,-299 5,-41 5,-43 23,-95 17,-48 17,-49 12,-54 -9,-8 -76,-45 -154,-84 -54,-28 -89,-47 -122,-70 -54,-36 -191,-137 -193,-143 -20,-54 92,26 93,27 193,145 213,132 396,239 9,5 9,5 16,-1 54,-48 91,-83 103,-98 19,-24 69,-93 95,-133 23,-35 36,-48 52,-58 16,-9 23,-8 -53,-47 -82,-41 -115,-45 -427,-46 -226,0 -243,-1 -322,-11 -52,-7 -53,-7 -85,-3 -88,13 -180,48 -251,95 -17,11 -123,121 -116,126 6,5 63,29 67,29 18,0 48,-24 51,-39 4,-14 8,-16 27,-11 17,5 11,19 4,33 -13,25 -33,40 -69,52 -18,6 -14,7 -87,-26 l -52,-23 h -68 c -78,0 -87,1 -125,21 -50,26 -104,69 -173,138 -85,86 -134,150 -179,237 -55,107 -84,177 -99,243 -16,66 -27,101 -39,126 -4,8 -73,106 -73,48 0,-1 5,-9 11,-17 24,-32 37,-59 48,-97 11,-40 31,-123 29,-124 -4,-4 -136,16 -189,29 -63,15 -95,30 -124,58 -67,64 -166,221 -188,298 -8,28 -9,99 0,126 26,78 91,128 170,169 38,20 35,21 71,-16 51,-54 44,-56 32,-116 -4,-18 -12,-87 34,-58 l 27,119 -11,21 c -44,93 -161,136 -187,226 -17,59 -15,165 4,236 16,58 81,153 158,230 58,59 91,78 155,91 75,14 95,21 86,9 -100,-143 25,-240 32,-400 5,-93 -24,-214 -74,-315 -12,-23 -11,-50 25,-50 8,0 52,105 69,164 87,302 -61,392 -41,508 7,45 46,97 102,137 53,38 165,70 245,101 49,19 160,47 185,47 7,0 15,-6 37,-24 61,-49 197,-146 317,-228 29,-19 52,-35 52,-37 l -88,-41 c -22,-11 -173,-139 -184,-156 -61,-92 -143,-156 -252,-222 -100,-61 -135,-84 -177,-119 -116,-96 -47,-109 -22,-83 114,122 265,166 399,294 26,24 76,83 87,102 3,5 32,32 64,59 110,93 97,84 147,105 l 79,30 c 123,-78 178,-116 293,-145 106,-27 38,3 27,-57 -6,-34 -22,-79 -26,-100 -45,-257 -45,-256 -51,-381 -5,-87 -11,-158 -17,-193 -10,-53 -23,-89 -72,-191 -60,-126 -22,-158 10,-84 86,194 108,181 123,461 7,129 7,128 42,324 8,47 20,104 27,127 24,86 43,69 70,69 136,-3 130,-12 265,11 74,12 91,13 177,7 113,-6 179,-21 223,-50 33,-21 77,-70 111,-86 24,-12 0,1 14,-45 20,-60 29,-112 23,-137 -7,-35 -35,-71 -126,-163 -4,-4 -93,-84 -36,-84 l 66,61 c 5,0 -1,-17 -25,-70 -7,-17 -34,-56 -15,-64 19,-8 30,36 37,51 19,42 27,64 39,108 11,41 89,93 98,164 3,30 -6,83 -23,135 -9,27 -11,27 16,21 64,-15 118,-6 184,-3 51,2 73,-3 121,-27 84,-41 174,-114 216,-177 38,-56 51,-101 58,-201 2,-32 3,-35 15,-60 8,-15 15,-28 17,-29 6,-2 39,14 39,19 0,2 -5,15 -12,28 -28,59 2,113 -51,224 -59,122 -201,200 -196,206 2,2 53,-8 130,-26 148,-34 191,-42 258,-48 178,-17 314,42 324,42 4,0 48,-34 92,-71 99,-85 175,-165 259,-274 50,-65 75,-94 107,-128 40,-40 88,-83 93,-81 5,2 19,19 19,24 0,1 -17,17 -37,36 -56,50 -84,82 -165,186 -90,116 -204,230 -314,314 -14,11 -17,14 -14,17 6,5 160,97 181,107 13,7 18,9 22,6 20,-10 57,-75 66,-75 84,0 -33,128 -70,128 -13,0 -43,-16 -149,-79 -112,-68 -121,-72 -169,-84 -163,-41 -283,-22 -458,19 -119,28 -188,41 -246,46 -34,2 -26,8 -61,7 -53,-2 -171,37 -211,56 -82,39 -155,103 -243,188 40,85 47,118 22,215 -24,89 -62,92 -37,-5 13,-49 15,-61 15,-83 -1,-43 -17,-87 -52,-142 -34,-52 9,-53 23,-31 l 9,14 c 106,-96 154,-153 308,-214 20,-8 -73,-7 -128,16 -102,43 -68,142 -413,149 -82,1 -60,3 -140,-10 -103,-18 -159,-20 -242,-11 -81,8 -186,34 -237,58 -98,46 -439,274 -587,392 -38,31 -68,57 -78,70 -18,22 -36,72 -52,213 -2,16 -13,109 -11,122 9,77 105,141 109,156 7,24 4,69 20,106 11,26 12,18 5,43 -30,118 116,218 210,271 24,13 48,28 54,32 18,15 12,0 25,0 2,0 27,12 57,27 90,44 138,58 209,58 48,0 91,-10 132,-18 25,-5 14,-8 -7,-20 -77,-42 -126,-100 -146,-175 -6,-21 -7,-30 -7,-73 0,-83 16,-138 79,-281 13,-29 23,-54 22,-55 -2,-3 -33,17 -48,31 -30,27 -51,60 -80,123 -29,63 -68,135 -81,148 -51,54 -99,19 -49,-9 10,-6 22,-13 24,-16 7,-8 54,-96 71,-134 34,-75 62,-116 102,-149 63,-51 128,-44 91,-58 -95,-35 -130,-95 -148,-92 -6,2 -14,-2 -40,-19 -18,-11 -78,-45 -134,-74 -16,-8 -140,-54 -89,-85 2,-1 205,104 214,111 8,7 6,-2 -11,-35 -60,-117 -16,-130 3,-79 65,168 166,252 358,267 34,3 49,3 67,0 24,-4 143,-33 224,-55 75,-21 57,-27 97,-71 35,-38 78,-8 56,-41 -18,-25 -106,-188 -75,-202 44,-18 72,138 112,192 23,30 23,30 59,35 111,15 261,43 330,20 64,-21 168,-82 258,-126 l 56,-29 c 0,-48 0,-56 35,-123 41,-77 51,-93 133,-207 40,-55 136,-221 136,-147 0,12 -43,81 -109,172 -77,107 -95,136 -133,208 -19,37 -23,47 -25,62 -3,33 10,14 53,7 20,-3 22,-3 76,11 66,17 95,20 173,20 69,0 291,-10 297,-14 32,-17 65,-18 120,-59 35,-25 54,-51 78,-102 27,-58 71,-36 6,65 -17,27 -50,60 -79,78 -47,31 -10,7 89,67 90,56 131,68 221,68 47,0 120,-7 131,-12 12,-6 77,-73 115,-116 69,-81 91,-98 196,-155 35,-19 86,-51 138,-85 78,-52 86,-59 129,-98 109,-104 159,-162 184,-217 4,-10 15,-38 24,-62 38,-101 74,-176 122,-252 72,-114 94,-167 89,-216 -2,-21 -9,-33 -62,-120 -44,-73 -80,-136 -103,-177 -57,-103 18,-72 25,-56 17,35 43,81 103,182 34,57 66,111 70,120 44,88 -16,188 -92,309 -13,21 -24,40 -23,43 2,16 154,89 183,108 18,12 148,95 90,117 -4,2 -106,-84 -110,-87 l -153,-83 c -15,-10 -29,-18 -30,-18 -5,0 -34,67 -79,185 -27,71 -70,126 -184,237 l -62,61 -83,55 c -98,66 -108,72 -165,102 -129,69 -130,97 -229,200 -30,32 -31,26 -17,45 135,198 33,164 31,152 -6,-25 -14,-42 -41,-81 -32,-47 -27,-48 -52,-44 -71,11 -171,14 -223,6 -139,-20 -200,-123 -298,-111 l -15,2 c 6,53 30,118 67,149 24,19 8,40 -3,40 -8,0 -33,-22 -46,-40 -44,-60 -52,-139 -58,-146 -3,-4 -18,-3 -90,1 -134,7 -207,9 -264,6 -59,-2 -66,-3 -132,-20 l -48,-12 -66,18 c -103,40 -272,153 -367,172 -96,19 -397,-46 -429,-29 l -61,67 c -22,21 -22,22 -22,35 0,38 88,165 93,186 l 3,106 76,26 c 77,21 76,84 -68,30 -63,-24 -57,-29 -57,-92 v -54 c -6,-25 -104,-158 -96,-212 3,-18 7,-14 -100,13 -121,31 -128,32 -177,30 -23,0 -51,-3 -63,-4 -33,-5 -14,2 -57,11 -16,3 -31,7 -32,9 -5,7 -51,112 -69,157 -67,165 -63,274 12,354 50,53 116,86 268,131 59,17 90,33 137,70 24,18 60,55 60,61 0,55 -107,-51 -133,-66 -40,-23 -108,-40 -156,-56 -48,-15 -35,-17 -61,-6 -19,7 -54,15 -120,26 -72,13 -146,3 -226,-30 -33,-12 -18,-2 8,16 126,84 262,145 396,177 181,44 269,27 440,34 80,3 147,-4 301,-30 102,-17 167,-31 196,-43 156,-62 338,-52 534,-44 114,5 176,4 289,-4 99,-6 255,-6 302,0 225,33 244,76 518,58 108,-7 130,2 210,15 66,11 267,31 362,35 62,3 87,6 105,11 23,7 161,22 212,17 17,-2 48,-4 69,-5 37,-1 39,-2 52,-10 18,-12 23,-23 22,-49 -2,-25 -9,-44 -28,-77 -15,-25 -15,-25 -74,-69 -32,-25 -69,-54 -81,-65 -37,-34 -101,-107 -151,-173 -23,-31 -14,-28 -55,-14 -132,44 -248,55 -376,43 28,29 51,56 65,92 7,18 8,21 7,75 0,107 -42,84 -36,39 3,-29 2,-83 -8,-108 -23,-56 -93,-110 -156,-121 -60,-10 -429,-52 -567,-64 -59,-5 -81,-5 -204,6 -98,8 -186,11 -226,7 -53,-5 -69,-10 -123,-36 -39,-18 -54,-24 -62,-23 -16,0 -57,21 -127,66 -132,85 -163,94 -303,94 -67,0 -83,-1 -118,-6 -54,-9 -98,-18 -156,-33 -47,-12 -49,-12 -68,-9 -75,11 -110,87 -230,103 -190,26 -225,-55 -170,-45 53,10 121,14 164,8 98,-12 134,-73 201,-95 40,-14 50,-13 128,6 112,28 194,39 275,36 54,-2 85,-6 112,-14 86,-23 236,-150 297,-150 12,0 118,51 136,55 55,11 127,11 246,1 157,-14 170,-14 281,-3 106,11 345,37 450,50 141,18 241,51 378,33 111,-15 223,-51 338,-109 37,-18 186,-109 220,-135 16,-11 30,-20 32,-20 4,0 21,22 19,26 -2,7 -61,47 -140,95 -84,51 -120,71 -175,95 -37,17 -39,10 -12,44 77,98 137,160 205,211 64,47 75,57 88,78 93,143 -5,183 8,188 2,1 114,5 127,0 54,-2 116,-12 173,-29 100,-28 68,-13 90,-102 16,-66 18,-87 10,-140 -8,-54 -4,-108 8,-132 4,-7 29,-42 64,-89 49,-66 45,-171 30,-262 -15,-88 -47,-189 -82,-262 -41,-82 -54,-26 -180,-43 -42,-6 -40,-6 -38,2 1,4 3,25 6,47 15,134 -27,372 -27,478 0,37 -34,38 -36,9 -1,-27 5,-104 17,-216 15,-135 21,-236 -4,-348 -24,-112 -74,-218 -146,-310 -10,-13 -18,-24 -18,-26 0,-4 19,-20 24,-20 6,0 33,35 62,79 44,66 79,141 101,218 6,21 12,40 13,41 10,8 132,17 185,13 48,-4 67,-6 131,-18 8,-1 193,-49 157,9 -4,6 -144,26 -163,30 -25,4 -49,-1 -48,22 25,44 57,135 76,211 27,110 26,160 27,259 52,-52 85,-87 121,-160 14,-28 33,-62 41,-75 3,-5 85,-124 85,-63 0,2 -9,15 -19,30 -88,126 -69,155 -184,278 l 52,55 c 54,57 56,60 60,88 1,7 3,12 5,11 7,-2 42,-100 60,-165 27,-96 46,-215 53,-329 6,-89 11,-126 -15,-205 -17,-51 -60,-128 -78,-171 -21,-51 -13,18 -5,52 5,23 20,111 -20,68 -2,-2 -8,-22 -13,-44 -13,-60 -14,-92 -3,-160 21,-125 35,-281 9,-382 -10,-41 -14,-46 -56,-84 -22,-19 -40,-34 -41,-34 -2,0 -3,22 -4,49 -5,149 -43,186 -52,242 -1,9 -6,31 -10,49 -5,18 -17,185 -41,106 -12,-42 6,-110 14,-158 3,-15 8,-33 11,-40 28,-66 45,-158 42,-231 -1,-31 -2,-35 -10,-51 -24,-49 -76,-119 -221,-300 -98,-123 -140,-177 -176,-224 -27,-36 -21,-23 -5,48 13,61 20,98 35,197 15,102 22,130 63,243 l 24,66 -6,51 c -3,38 -7,59 -13,80 -11,36 -34,82 -58,115 -47,66 -148,155 -248,218 -63,40 -64,41 -89,70 -50,59 -102,165 -147,233 -33,51 -127,158 -182,209 -46,43 -70,61 -150,113 -23,15 -91,91 -94,91 -5,0 -24,-16 -24,-20 0,-4 24,-32 57,-66 19,-19 32,-30 57,-46 88,-54 158,-119 251,-229 42,-50 61,-79 104,-154 58,-100 78,-131 113,-169 19,-20 30,-28 79,-59 104,-66 196,-146 244,-212 38,-54 56,-103 64,-172 l 5,-47 -33,-94 c -31,-84 -41,-129 -58,-243 -23,-162 -67,-339 -108,-439 -85,-209 -221,-317 -434,-349 -65,-9 -143,0 -207,19 l -47,81 c -18,26 -63,72 -69,72 -4,0 -21,-19 -21,-24 0,-5 114,-104 115,-205 0,-18 -1,-22 -9,-38 -65,-121 -474,-411 -474,-425 0,-5 16,-24 20,-24 l 100,76 c 46,35 188,151 229,187 95,83 149,144 165,187 8,19 2,68 9,68 2,0 17,-3 32,-6 25,-5 37,-6 94,-6 61,0 68,0 101,7 240,52 367,184 448,413 23,68 67,129 291,409 115,142 173,221 199,269 8,15 50,36 73,57 43,38 58,46 73,82 30,72 34,224 10,386 3,50 6,49 25,95 17,40 55,116 60,119 6,4 1,-610 -188,-810 -18,-19 -21,-23 -25,-41 -26,-106 -82,-224 -145,-309 -80,-106 -133,-107 -150,-126 -29,-32 22,-223 -172,-455 -72,-86 -177,-170 -278,-223 -24,-13 -19,-15 -23,-39 -8,-46 -52,-112 -118,-176 -21,-20 -34,-36 -55,-66 -119,-179 -315,-322 -583,-425 -96,-37 -195,-67 -284,-86 -65,-14 -75,-17 -120,-37 -114,-51 -246,-85 -377,-99 -38,-4 -105,-5 -202,-3 -64,1 -128,-21 -200,1 -52,15 -66,23 -116,74 -47,48 -66,63 -105,84 -15,8 -26,14 -26,15 0,5 43,105 70,118 19,9 14,8 35,-19 31,-40 72,-80 103,-100 47,-32 80,-43 184,-63 21,-4 85,-29 85,0 0,17 -35,16 -51,19 -145,28 -196,39 -271,124 -28,31 -40,48 -36,50 13,8 195,0 302,55 34,18 102,73 118,82 l 43,16 c 44,0 46,-16 53,-23 12,-13 23,-41 35,-95 23,-99 31,-111 95,-154 55,-36 122,-64 161,-67 l 21,-1 80,35 c 163,71 254,106 327,123 139,33 372,159 451,250 40,46 44,94 44,158 l 34,17 c 143,73 268,186 436,395 53,66 132,150 172,209 31,44 48,65 64,77 21,16 14,121 -104,-52 -45,-65 -112,-132 -168,-202 -90,-113 -190,-220 -260,-278 -73,-59 -164,-114 -198,-119 -24,-4 -4,-9 -64,-31 -177,-62 -135,9 -354,-127 -112,-69 -161,-91 -242,-107 -162,-34 -363,-1 -540,46 -69,18 -35,-24 -74,46 -87,153 -209,314 -270,358 -19,13 -15,10 -1,39 70,148 0,165 -10,339 l -3,53 c 4,18 53,74 4,74 -6,0 -25,-32 -34,-57 -6,-14 -6,-17 -3,-71 4,-64 5,-74 26,-150 22,-82 20,-103 -16,-179 -15,-31 -10,-37 -30,-46 0,0 -76,-39 -134,-71 -95,-54 -91,-96 16,-35 58,34 137,79 151,79 7,0 26,-13 44,-30 29,-28 90,-107 138,-178 51,-76 109,-171 109,-179 0,-4 -105,-83 -131,-98 -21,-12 -58,-25 -87,-31 -40,-8 -174,-18 -211,-21 l -19,-2 z M 1791,3876 c -23,-19 -77,-58 -119,-87 -13,-8 -94,-51 -82,-69 17,-27 183,110 206,128 64,52 59,46 53,55 -13,20 -45,-16 -58,-27 z m 1703,-439 c -20,-22 -53,-67 -61,-85 -18,-41 -22,-80 -14,-137 2,-21 6,-40 8,-42 26,-35 29,35 28,43 -11,84 -1,115 59,188 28,35 12,66 -20,33 z M 5091,1983 c -28,-6 -59,-20 -74,-36 -16,-15 -21,-31 -18,-57 3,-35 -7,-113 -24,-190 -24,-106 -71,-211 -127,-280 -46,-57 -106,-103 -150,-114 -52,-13 -171,-14 -234,-1 -141,29 -172,167 -330,229 -12,5 -44,15 -75,24 -108,32 -124,-11 -20,-44 l 68,-21 c 32,-11 27,-18 58,-66 25,-38 44,-74 61,-117 34,-85 40,-129 25,-191 -12,-50 -7,-83 19,-122 24,-37 99,-114 107,-109 37,21 1,41 -20,63 -74,75 -84,99 -70,162 12,54 10,98 -6,153 -11,36 -37,98 -57,134 -8,15 -15,29 -14,30 1,3 42,-34 62,-56 28,-31 75,-71 99,-85 64,-36 118,-39 213,-39 75,0 86,0 111,6 77,17 155,80 221,178 51,76 93,185 115,299 5,25 14,90 14,98 0,6 9,1 52,-34 46,-35 47,-36 76,-45 41,-13 72,-19 76,-13 23,38 -47,43 -79,52 l -117,84 c -3,0 -5,4 -6,15 -3,19 -1,23 13,31 20,12 54,16 84,20 2,46 9,53 -53,42 z m 1111,2148 c 74,-50 144,-126 194,-208 17,-29 16,-19 16,-50 -1,-26 -6,-62 -10,-70 -7,-14 -80,-86 -100,-107 -56,47 -34,37 -89,111 -23,30 -39,55 -42,63 -20,55 21,122 -8,237 -17,67 -23,66 39,24 z M 1139,3261 c 0,-5 20,-178 22,-191 6,-32 8,-29 -33,-51 -35,-19 -43,-28 -51,-14 -14,23 -62,60 -101,76 -17,8 -22,8 -47,8 -21,0 -46,5 -42,-19 5,-36 43,-7 84,-27 11,-6 28,-15 37,-21 17,-12 42,-38 42,-44 0,-2 -12,-16 -28,-31 -25,-25 -84,-99 -84,-106 0,-2 -6,-5 -13,-8 -73,-27 -97,-38 -132,-61 -13,-9 -27,-16 -31,-17 -21,-4 -160,80 -240,94 -31,5 -166,12 -152,-37 3,-13 4,-13 41,-5 58,12 101,10 150,-6 31,-10 130,-58 127,-62 -1,-1 -24,-6 -51,-10 -78,-14 -107,-25 -152,-58 -72,-54 -168,-173 -208,-253 -38,-74 -50,-233 -21,-321 20,-61 77,-102 77,-109 0,-2 -9,-8 -20,-14 -41,-20 -82,-48 -113,-78 -18,-16 -28,-19 -45,-11 -16,9 -42,45 -46,66 -1,4 -8,16 -15,26 -100,137 -50,315 42,461 35,56 87,123 115,147 14,11 20,28 28,68 94,514 860,610 860,608 z m 45,-296 c 27,-78 55,-19 -135,-88 -17,-6 -31,-11 -32,-10 -5,5 47,56 66,70 18,13 87,51 91,50 1,0 6,-10 10,-22 z M 91,1902 c 22,-39 65,-57 63,-59 -25,-48 -32,-67 -35,-118 -2,-58 7,-96 39,-159 54,-109 146,-234 198,-268 42,-29 145,-55 270,-69 48,-6 42,-1 59,-41 24,-58 81,-171 103,-203 90,-134 251,-286 348,-328 35,-15 46,-17 113,-17 61,0 93,-2 106,-8 8,-4 99,-106 116,-118 59,-43 162,-87 246,-103 94,-19 95,-2 158,-2 0,-43 -1,-85 18,-116 13,-22 21,-37 36,-13 l -2,26 c -5,8 -11,21 -13,29 -4,19 -2,73 2,77 l 497,9 c 82,11 121,6 200,49 13,6 24,12 25,11 1,-1 21,-65 32,-103 9,-31 18,-42 36,-63 -27,-43 -55,-86 -86,-119 -40,-42 -51,-46 -116,-49 -107,-4 -65,-24 -144,0 l -41,-4 c -54,-7 -182,-9 -238,-5 -268,21 -541,132 -731,313 -21,20 -21,20 -33,18 -68,-10 -107,32 -162,63 -123,69 -189,135 -322,275 -27,29 -54,54 -59,58 -15,9 -118,41 -126,39 -15,-4 -152,141 -191,164 -67,39 -133,108 -187,196 -37,58 -88,172 -105,234 -9,30 -72,117 -101,204 -19,56 -24,118 -12,160 6,25 21,55 26,55 2,0 8,-7 13,-15 z M 720,847 c 14,-4 29,-10 34,-12 4,-3 36,-34 69,-70 124,-131 194,-199 321,-269 23,-13 42,-24 41,-25 -2,-2 -31,7 -57,18 -94,39 -214,128 -334,249 -37,37 -100,105 -105,114 -3,5 2,4 31,-5 z m 4476,-46 c 0,-21 -6,-45 -14,-65 -22,-49 -116,-120 -249,-189 -86,-44 -144,-67 -213,-84 -65,-15 -139,-43 -295,-110 -120,-51 -111,-49 -157,-33 -55,20 -124,61 -147,88 -24,28 -35,133 -59,179 -11,22 -12,19 39,7 177,-40 367,-55 527,-2 50,16 90,35 159,78 146,89 159,94 244,107 170,26 165,70 165,24 z M 3397,280 c 72,-40 86,-80 133,-115 44,-34 122,-56 178,-57 -31,-15 -85,-33 -135,-44 -114,-27 -243,-32 -365,-15 -37,6 -89,16 -91,18 -4,4 122,37 211,157 49,66 25,81 69,56 z M 2728,178 c 19,-23 39,-46 46,-51 80,-66 213,-72 38,-68 -118,2 -221,17 -330,47 81,11 105,-7 183,85 14,17 27,30 28,29 1,0 17,-20 35,-42 z"
               id="path7990" />
          </g>
        </g>
      </g>
      <g
         transform="matrix(0,-0.113129,0.113129,0,110.68273,208.63142)"
         id="g9398">
        <path
           d="m 271.3511,223.60161 a 45.394841,45.394841 0 0 1 45.39484,45.39485 45.394841,45.394841 0 0 1 -45.39484,45.39485 45.394841,45.394841 0 0 1 -45.39484,-45.39485 45.394841,45.394841 0 0 1 45.39484,-45.39485 z M 78.569619,21.37233 25.92106,21.44803 c -1.341265,0.002 -2.421058,1.07979 -2.421058,2.42105 v 52.25136 c 0,1.34126 1.079792,2.42105 2.421058,2.42105 h 19.524511 v 18.93343 c 0,1.34127 1.079792,2.42106 2.421058,2.42106 h 19.76094 v 22.88657 l 13.093574,13.0983 h 21.113327 v 52.75259 c 0,1.34127 1.07979,2.42106 2.42106,2.42106 h 21.32139 A 135.03209,135.03209 0 0 0 113.43853,246.59693 135.03209,135.03209 0 0 0 248.46926,381.62767 135.03209,135.03209 0 0 0 383.5,246.59693 135.03209,135.03209 0 0 0 248.46926,111.5662 135.03209,135.03209 0 0 0 185.72036,127.13758 L 81.033233,22.45518 c -0.681198,-0.67225 -1.69207,-0.82115 -2.463614,-1.08285 z"
           style="fill:#000000;fill-opacity:1;fill-rule:nonzero;stroke:#000000;stroke-width:6;stroke-linecap:butt;stroke-linejoin:round;stroke-miterlimit:4;stroke-dasharray:none;stroke-opacity:1;filter:url(#filter4378)"
           id="path4364"
           inkscape:connector-curvature="0" />
        <path
           inkscape:connector-curvature="0"
           id="path4144"
           d="m 70.569619,13.37233 -52.648559,0.0757 c -1.341265,0.002 -2.421058,1.07979 -2.421058,2.42105 v 52.25136 c 0,1.34126 1.079792,2.42105 2.421058,2.42105 h 19.524511 v 18.93343 c 0,1.34127 1.079792,2.42106 2.421058,2.42106 h 19.76094 v 22.88657 l 13.093574,13.0983 h 21.113329 v 52.75259 c 0,1.34127 1.079792,2.42106 2.421058,2.42106 h 21.32139 c -7.942,17.44291 -12.07984,36.37665 -12.13839,55.54243 7.5e-4,74.57511 60.45562,135.02999 135.03073,135.03074 74.57511,-7.5e-4 135.02999,-60.45563 135.03074,-135.03074 -7.5e-4,-74.57511 -60.45563,-135.02998 -135.03074,-135.03073 -21.86862,0.0328 -43.40209,5.37636 -62.7489,15.57138 L 73.033233,14.45518 c -0.681198,-0.67225 -1.69207,-0.82115 -2.463614,-1.08285 z M 263.3511,215.60161 c 25.07088,0 45.39484,20.32397 45.39484,45.39485 0,25.07088 -20.32396,45.39485 -45.39484,45.39485 -25.07088,0 -45.39484,-20.32397 -45.39484,-45.39485 0,-25.07088 20.32396,-45.39485 45.39484,-45.39485 z"
           style="fill:url(#linearGradient4362);fill-opacity:1;fill-rule:nonzero;stroke:none;stroke-width:1px;stroke-linecap:butt;stroke-linejoin:miter;stroke-opacity:1"
           sodipodi:nodetypes="ccssscssccccssccccccccsssss" />
        <path
           inkscape:connector-curvature="0"
           id="rect4363"
           style="fill:none;fill-opacity:1;fill-rule:nonzero;stroke:url(#linearGradient4354);stroke-width:2;stroke-linecap:butt;stroke-linejoin:round;stroke-miterlimit:4;stroke-dasharray:none;stroke-opacity:1"
           d="m 263.3511,215.60161 a 45.394841,45.394841 0 0 1 45.39484,45.39485 45.394841,45.394841 0 0 1 -45.39484,45.39485 45.394841,45.394841 0 0 1 -45.39484,-45.39485 45.394841,45.394841 0 0 1 45.39484,-45.39485 z M 70.569619,13.37233 17.92106,13.44803 c -1.341265,0.002 -2.421058,1.07979 -2.421058,2.42105 v 52.25136 c 0,1.34126 1.079792,2.42105 2.421058,2.42105 h 19.524511 v 18.93343 c 0,1.34127 1.079792,2.42106 2.421058,2.42106 h 19.76094 v 22.88657 l 13.093574,13.0983 h 21.113329 v 52.75259 c 0,1.34127 1.079792,2.42106 2.421058,2.42106 h 21.32139 A 135.03209,135.03209 0 0 0 105.43853,238.59693 135.03209,135.03209 0 0 0 240.46926,373.62767 135.03209,135.03209 0 0 0 375.5,238.59693 135.03209,135.03209 0 0 0 240.46926,103.5662 135.03209,135.03209 0 0 0 177.72036,119.13758 L 73.033233,14.45518 c -0.681198,-0.67225 -1.69207,-0.82115 -2.463614,-1.08285 z" />
        <path
           id="path4146"
           d="m 54.610073,32.41861 c 0.495096,0 0.987206,0.18806 1.366574,0.56744 l 108.767933,108.7632 c 0.75873,0.75873 0.75873,1.97914 0,2.73788 l -9.27757,9.27757 c -0.75874,0.75873 -1.97914,0.75873 -2.73788,0 L 43.961199,45.0015 c -0.758732,-0.75874 -0.758732,-1.97915 0,-2.73788 l 9.277574,-9.27757 c 0.379364,-0.37937 0.876206,-0.56744 1.3713,-0.56744 z"
           style="fill:none;fill-opacity:1;fill-rule:nonzero;stroke:#000000;stroke-width:3;stroke-linecap:butt;stroke-linejoin:round;stroke-miterlimit:4;stroke-dasharray:none;stroke-opacity:1;filter:url(#filter4409)"
           inkscape:connector-curvature="0"
           clip-path="url(#clipPath4401)" />
      </g>
    </g>
  </g>
</svg>
