n,c,m,k,climit,width,word,crate,usize,psize,csize,cfactor,minfill,maxfill,avgfill,maxc,fp,b12,b13,b14,b15,b16,b17,b18,b19,b20,b21,b22,b23,b24,b25,b26,b27,b28,b29,b30,b31,b32,b33,b34,b35,b36,b37,b38,b39,b40,b41,b42,b43,b44,b45,b46,b47,b48,b49,b50,b51,b52,b53,b54,b55,b56,b57,b58,b59,b60,b61,b62,b63,b64,c0,c1,c2,c3,c4,c5,c6,c7,c8,c9,t0,t1,t2,t3,t4,camsize
10000,1.6,16384,2,5,4,64,23,49152.0,43712,45632,0.0716145833333,12,64,49.2791023843,8,0.497008551807,1,0,0,0,0,0,0,0,0,0,0,0,0,0,0,0,0,0,0,0,1,0,1,1,2,3,4,10,10,14,23,26,26,43,57,50,41,57,49,57,45,42,32,23,27,22,14,13,4,7,5,2,1,4838,5913,3549,1520,426,108,26,3,1,0,7698,7414,1242,30,0,12
10000,1.6,16384,2,5,4,64,21,49152.0,43712,49984,-0.0169270833333,5,64,45.2138284251,7,0.497008551807,0,0,0,0,0,0,0,0,0,0,0,0,0,0,0,0,0,0,0,0,2,4,5,8,11,19,19,41,39,39,49,49,57,59,67,74,47,35,35,29,25,13,23,14,3,4,2,4,2,1,0,0,1,4937,5816,3507,1519,452,118,30,5,0,0,7778,7266,1304,36,0,18
10000,1.6,16384,2,5,4,64,20,49152.0,43712,52480,-0.0677083333333,8,59,42.7548780488,8,0.497008551807,0,0,0,0,0,0,0,0,0,0,0,0,0,0,0,0,0,1,0,2,6,14,15,20,33,31,46,64,49,50,80,65,53,52,43,43,34,30,30,22,10,4,5,7,3,5,1,1,0,0,0,0,0,4807,5963,3564,1460,454,110,22,3,1,0,7686,7428,1248,22,0,10
10000,1.6,16384,2,5,4,64,22,49152.0,43712,47680,0.0299479166667,27,62,47.3194630872,7,0.497008551807,0,0,0,0,0,0,0,0,0,0,0,0,0,0,0,1,0,0,0,0,1,0,3,3,3,5,14,17,22,23,42,25,44,66,57,54,57,59,54,42,45,24,30,17,14,6,7,3,3,2,2,0,0,4887,5825,3631,1444,450,111,26,10,0,0,7692,7430,1230,32,0,14
10000,1.6,16384,2,5,4,64,22,49152.0,43712,47680,0.0299479166667,30,63,47.0067114094,8,0.497008551807,0,0,0,0,0,0,0,0,0,0,0,0,0,0,0,0,0,0,1,0,0,3,3,2,6,6,11,9,26,34,37,50,56,58,46,54,60,57,46,44,33,27,24,12,10,9,5,7,3,3,2,1,0,4787,5977,3597,1437,443,116,24,2,1,0,7689,7427,1243,25,0,12
10000,1.6,16384,2,5,4,64,22,49152.0,43712,47680,0.0299479166667,31,62,47.0912751678,7,0.497008551807,0,0,0,0,0,0,0,0,0,0,0,0,0,0,0,0,0,0,0,2,0,3,4,3,5,7,8,18,18,34,28,47,52,55,57,69,63,42,44,35,33,45,15,22,4,7,5,9,8,1,2,0,0,4773,5938,3631,1504,429,86,19,4,0,0,7676,7454,1224,30,0,8
10000,1.6,16384,2,5,4,64,21,49152.0,43712,49984,-0.0169270833333,8,61,44.8245838668,7,0.497008551807,0,0,0,0,0,0,0,0,0,0,0,0,0,0,0,0,0,0,0,0,3,2,3,15,15,20,21,40,42,45,43,58,62,68,56,57,50,46,34,28,14,14,17,9,6,3,4,1,2,2,0,0,0,4784,5995,3596,1388,480,121,16,4,0,0,7666,7468,1227,23,0,9
10000,1.6,16384,2,5,4,64,22,49152.0,43712,47680,0.0299479166667,31,62,46.9046979866,8,0.497008551807,0,0,0,0,0,0,0,0,0,0,0,0,0,0,0,0,0,0,0,1,3,0,1,3,5,6,11,17,32,19,43,45,45,64,57,62,47,51,57,34,42,32,18,23,11,7,6,2,0,0,1,0,0,4779,6021,3539,1477,413,119,31,4,1,0,7642,7521,1195,26,0,11
10000,1.6,16384,2,5,4,64,22,49152.0,43712,47680,0.0299479166667,32,64,47.189261745,9,0.497008551807,0,0,0,0,0,0,0,0,0,0,0,0,0,0,0,0,0,0,0,0,1,0,3,4,2,12,9,20,21,21,40,59,51,45,45,59,59,56,47,45,34,25,22,19,13,10,9,6,3,2,0,1,2,4828,5891,3628,1460,440,115,18,3,0,1,7693,7420,1242,29,0,9
10000,1.6,16384,2,5,4,64,21,49152.0,43712,49984,-0.0169270833333,12,62,44.8565941101,7,0.497008551807,1,0,0,0,0,0,0,0,0,0,0,0,0,0,0,0,0,1,0,2,0,2,7,12,13,16,21,33,42,55,60,63,55,48,55,51,47,50,40,38,17,16,11,9,5,4,1,3,2,0,1,0,0,4807,5974,3577,1416,459,122,26,3,0,0,7678,7452,1231,23,0,17
10000,1.6,16384,2,5,4,64,22,49152.0,43712,47680,0.0299479166667,34,63,47.2161073826,7,0.497008551807,0,0,0,0,0,0,0,0,0,0,0,0,0,0,0,0,0,0,0,0,0,0,3,4,2,13,12,18,24,32,36,42,49,59,46,54,47,37,60,46,39,44,26,8,11,14,6,4,2,4,2,1,0,4873,5886,3574,1433,464,119,29,6,0,0,7715,7378,1265,26,0,14
10000,1.6,16384,2,5,4,64,22,49152.0,43712,47680,0.0299479166667,30,64,47.0926174497,7,0.497008551807,0,0,0,0,0,0,0,0,0,0,0,0,0,0,0,0,0,0,1,1,0,1,1,3,6,8,11,16,24,30,47,54,50,51,57,47,44,55,47,30,39,30,23,23,15,10,5,6,2,2,2,3,1,4829,5952,3543,1455,462,118,17,8,0,0,7679,7461,1212,32,0,19
10000,1.6,16384,2,5,4,64,22,49152.0,43712,47680,0.0299479166667,33,63,47.1369127517,7,0.497008551807,0,0,0,0,0,0,0,0,0,0,0,0,0,0,0,0,0,0,0,0,0,1,2,3,9,12,10,17,19,26,26,40,55,52,72,63,51,43,50,51,32,30,22,30,9,4,7,3,3,1,1,1,0,4820,5916,3621,1437,454,107,23,6,0,0,7676,7451,1235,22,0,13
10000,1.6,16384,2,5,4,64,20,49152.0,43712,52480,-0.0677083333333,9,62,43.1353658537,8,0.497008551807,0,0,0,0,0,0,0,0,0,0,0,0,0,0,1,0,0,2,1,4,6,4,12,17,21,27,51,39,58,62,67,77,66,50,50,43,38,34,25,18,24,6,3,6,2,2,1,1,0,0,1,0,0,4914,5765,3629,1489,463,96,22,4,2,0,7751,7299,1313,21,0,12
10000,1.6,16384,2,5,4,64,21,49152.0,43712,49984,-0.0169270833333,11,62,45.0064020487,7,0.497008551807,0,0,0,0,0,0,0,0,0,0,0,0,0,0,0,0,0,0,0,0,1,5,6,5,8,14,27,37,47,43,46,56,64,60,59,61,55,46,42,28,25,17,9,3,3,2,4,2,4,0,1,0,0,4840,5894,3614,1446,449,108,28,5,0,0,7697,7411,1251,25,0,12
10000,1.6,16384,2,5,4,64,22,49152.0,43712,47680,0.0299479166667,33,64,47.277852349,8,0.497008551807,0,0,0,0,0,0,0,0,0,0,0,0,0,0,0,0,0,0,0,0,0,1,2,3,4,9,8,16,22,25,36,40,58,74,49,56,46,52,46,41,40,33,22,14,17,9,9,3,7,0,2,0,1,4880,5856,3586,1462,450,121,24,4,1,0,7726,7361,1270,27,0,18
10000,1.6,16384,2,5,4,64,21,49152.0,43712,49984,-0.0169270833333,9,63,45.0076824584,7,0.497008551807,0,0,0,0,0,0,0,0,0,0,0,0,0,0,0,0,0,0,0,1,1,3,5,8,12,13,27,38,43,43,51,57,59,56,63,56,52,62,29,23,19,13,22,8,5,3,4,2,0,1,0,1,0,4833,5895,3614,1462,439,118,17,6,0,0,7675,7451,1236,22,0,11
10000,1.6,16384,2,5,4,64,20,49152.0,43712,52480,-0.0677083333333,10,57,42.962195122,8,0.497008551807,0,0,0,0,0,0,0,0,0,0,0,0,0,0,0,0,1,3,6,0,5,6,13,21,25,33,48,41,47,63,83,61,66,62,36,43,36,24,27,19,15,8,16,7,2,2,0,0,0,0,0,0,0,4857,5846,3624,1488,432,115,18,2,2,0,7721,7359,1284,20,0,13
10000,1.6,16384,2,5,4,64,20,49152.0,43712,52480,-0.0677083333333,5,61,43.0317073171,7,0.497008551807,0,0,0,0,0,0,0,0,0,0,0,0,0,0,0,0,0,0,0,7,2,7,10,10,29,32,41,46,65,72,70,74,61,58,51,31,46,24,26,8,16,10,10,5,3,3,0,1,0,1,0,0,0,4888,5827,3580,1502,455,108,22,2,0,0,7714,7379,1264,27,0,12
10000,1.6,16384,2,5,4,64,21,49152.0,43712,49984,-0.0169270833333,5,58,44.8834827145,8,0.497008551807,0,0,0,0,0,0,0,0,0,0,0,0,0,0,0,0,0,0,0,2,2,6,5,7,16,13,22,39,33,48,55,57,59,67,54,61,56,36,30,30,26,21,10,11,7,5,2,0,0,0,0,0,0,4803,5966,3545,1503,433,108,20,5,1,0,7674,7459,1228,23,0,16
