n,c,m,k,climit,width,word,crate,usize,psize,csize,cfactor,minfill,maxfill,avgfill,maxc,fp,b12,b13,b14,b15,b16,b17,b18,b19,b20,b21,b22,b23,b24,b25,b26,b27,b28,b29,b30,b31,b32,b33,b34,b35,b36,b37,b38,b39,b40,b41,b42,b43,b44,b45,b46,b47,b48,b49,b50,b51,b52,b53,b54,b55,b56,b57,b58,b59,b60,b61,b62,b63,b64,c0,c1,c2,c3,c4,c5,c6,c7,c8,c9,t0,t1,t2,t3,t4,camsize
1000000,3.2,4194304,3,5,4,64,25,12582912.0,11184832,10737472,0.146662394206,6,64,42.854964744,9,0.133380367112,0,0,0,0,0,0,0,0,0,0,0,0,0,0,0,0,1,12,43,114,369,737,1495,2623,4254,6446,8827,11444,13647,15093,15763,15647,14787,13235,11224,9114,7151,5189,3735,2621,1651,1093,643,379,203,117,52,25,20,5,8,4,1,2051336,1467230,524695,125190,22260,3141,412,36,2,2,3204520,979670,10114,0,0,0
1000000,3.2,4194304,3,5,4,64,25,12582912.0,11184832,10737472,0.146662394206,6,62,42.8546369201,8,0.133380367112,0,0,0,0,0,0,0,0,0,0,0,0,0,0,0,0,3,14,30,141,351,773,1409,2654,4355,6490,8881,11422,13237,15006,15903,15768,14957,13254,11186,9178,7010,5218,3726,2584,1697,1059,615,383,221,124,63,39,10,8,3,0,0,2050910,1468304,524111,124895,22467,3187,389,39,2,0,3204448,979834,10021,1,0,0
1000000,3.2,4194304,3,5,4,64,25,12582912.0,11184832,10737472,0.146662394206,6,63,42.8551793197,8,0.133380367112,0,0,0,0,0,0,0,0,0,0,0,0,0,0,0,0,3,9,49,127,346,729,1501,2753,4314,6385,8893,11305,13449,15088,15711,15601,15015,13247,11292,9199,7025,5203,3754,2559,1676,1007,663,375,229,147,58,33,16,8,2,1,0,2051279,1467354,524609,125182,22314,3152,373,37,4,0,3204615,979490,10199,0,0,0
1000000,3.2,4194304,3,5,4,64,25,12582912.0,11184832,10737472,0.146662394206,6,64,42.8557157588,8,0.133380367112,0,0,0,0,0,0,0,0,0,0,0,0,0,0,0,0,2,13,46,128,309,783,1419,2653,4385,6475,8909,11285,13407,15197,15930,15639,14665,13270,11283,9221,6916,5291,3722,2555,1669,1066,666,399,209,126,65,37,17,7,4,1,3,2052004,1466344,524425,125590,22460,3092,349,36,4,0,3204765,979197,10342,0,0,0
1000000,3.2,4194304,3,5,4,64,25,12582912.0,11184832,10737472,0.146662394206,7,63,42.8541362436,8,0.133380367112,0,0,0,0,0,0,0,0,0,0,0,0,0,0,0,1,3,14,48,128,346,770,1462,2716,4279,6363,8767,11373,13589,15003,15866,15838,14813,13294,11220,9092,7119,5152,3727,2529,1680,1077,653,382,225,120,64,33,13,8,2,3,0,2050403,1468911,524299,124810,22199,3223,404,50,5,0,3204626,979468,10210,0,0,0
1000000,3.2,4194304,3,5,4,64,25,12582912.0,11184832,10737472,0.146662394206,5,63,42.8552568053,8,0.133380367112,0,0,0,0,0,0,0,0,0,0,0,0,0,0,0,1,1,19,40,129,342,759,1484,2671,4237,6462,9046,11251,13435,15166,15839,15505,14699,13300,11386,9233,7033,5299,3644,2540,1685,1071,621,394,224,125,73,35,12,6,3,2,0,2050558,1468542,524518,124671,22409,3206,351,46,3,0,3204635,979436,10232,1,0,0
1000000,3.2,4194304,3,5,4,64,25,12582912.0,11184832,10737472,0.146662394206,10,63,42.8554475392,9,0.133380367112,0,0,0,0,0,0,0,0,0,0,0,0,0,0,0,1,2,10,46,110,326,752,1489,2715,4320,6439,8969,11204,13401,15209,15930,15726,14703,13109,11161,9181,7086,5300,3768,2663,1622,1036,649,385,220,127,53,30,18,6,4,2,0,2051351,1466689,525316,125430,22003,3091,383,35,5,1,3204687,979344,10273,0,0,0
1000000,3.2,4194304,3,5,4,64,24,12582912.0,11184832,11184832,0.11110941569,26,63,41.1407048403,9,0.133380367112,0,0,0,0,0,0,0,0,0,0,0,0,0,0,2,7,27,70,233,525,1173,2208,3782,5763,8310,11211,13621,15570,16593,17055,16151,14468,12309,10364,7880,5751,4103,2877,1854,1158,745,470,246,112,61,32,14,8,7,1,1,1,0,2051764,1466664,524740,125119,22421,3166,379,46,4,1,3204623,979479,10201,1,0,0
1000000,3.2,4194304,3,5,4,64,25,12582912.0,11184832,10737472,0.146662394206,7,64,42.854511751,8,0.133380367112,0,0,0,0,0,0,0,0,0,0,0,0,0,0,0,0,3,18,52,139,352,706,1470,2674,4398,6438,8715,11373,13478,14894,15998,15716,14992,13179,11265,9080,7087,5261,3729,2529,1710,1064,631,384,203,111,64,33,13,8,4,0,1,2051239,1467023,525299,125067,22032,3194,411,31,8,0,3204523,979674,10106,1,0,0
1000000,3.2,4194304,3,5,4,64,25,12582912.0,11184832,10737472,0.146662394206,7,63,42.8547203662,8,0.133380367112,0,0,0,0,0,0,0,0,0,0,0,0,0,0,0,0,2,12,57,131,334,736,1522,2576,4297,6532,9075,11227,13462,15173,15441,15685,14887,13253,11234,9250,7236,5161,3730,2606,1665,1028,643,373,209,124,52,34,9,9,5,2,0,2050997,1467949,524468,124884,22410,3129,420,43,4,0,3204556,979605,10142,1,0,0
