n,c,m,k,climit,width,word,crate,usize,psize,csize,cfactor,minfill,maxfill,avgfill,maxc,fp,b25,b26,b27,b28,b29,b30,b31,b32,b33,b34,b35,b36,b37,b38,b39,b40,b41,b42,b43,b44,b45,b46,b47,b48,b49,b50,b51,b52,b53,b54,b55,b56,b57,b58,b59,b60,b61,b62,b63,b64,b65,b66,b67,b68,b69,b70,b71,b72,b73,b74,b75,b76,b77,b78,b79,b80,b81,b82,b83,b84,b85,b86,b87,b88,b89,b90,b91,b92,b93,b94,b95,b96,b97,b98,b99,b100,b101,b102,b103,b104,b105,b106,b107,b108,b109,b110,b111,b112,b113,b114,b115,b116,b117,b118,b119,b120,b121,b122,b123,b124,b125,b126,b127,b128,c0,c1,c2,c3,c4,c5,c6,c7,c8,c9,t0,t1,t2,t3,t4,camsize
1000000,12.8,16777216,12,5,4,128,56,50331648.0,43826304,38348032,0.238093058268,10,126,95.9949798728,9,0.000316495336157,0,0,0,0,0,0,0,0,0,0,0,0,0,0,0,0,0,0,0,0,0,0,0,0,0,0,0,0,0,0,0,0,0,0,0,0,0,0,0,0,0,0,0,0,0,0,2,2,5,19,23,57,97,188,354,558,928,1392,2116,2925,4011,5569,7131,8925,10786,12643,14639,16214,17157,18429,19040,18958,18623,17564,16500,15059,13069,11538,9786,8046,6625,5115,4155,3246,2375,1782,1243,866,602,421,314,189,110,81,38,32,15,11,9,7,3,1,0,0,8204052,5870788,2098802,500384,88850,12654,1520,156,9,1,15777340,999876,0,0,0,0
1000000,12.8,16777216,12,5,4,128,57,50331648.0,43826304,37675264,0.251459757487,10,127,97.7094157058,9,0.000316495336157,0,0,0,0,0,0,0,0,0,0,0,0,0,0,0,0,0,0,0,0,0,0,0,0,0,0,0,0,0,0,0,0,0,0,0,0,0,0,0,0,0,0,0,0,0,0,0,1,1,2,5,15,44,70,168,250,398,686,1071,1684,2330,3214,4522,6002,7453,9290,11149,12902,14592,16371,17165,18232,18502,18435,17805,16916,15544,14173,12466,10763,9151,7610,6245,4940,3739,2872,2125,1620,1235,846,583,421,277,168,109,61,50,25,16,12,7,2,2,0,8204552,5871020,2097577,500064,89565,12781,1494,147,14,2,15777328,999888,0,0,0,0
1000000,12.8,16777216,12,5,4,128,55,50331648.0,43826304,39045248,0.224240620931,29,128,94.2803000252,9,0.000316495336157,0,0,0,0,1,0,0,0,0,0,0,0,0,0,0,0,0,0,0,0,0,0,0,0,0,0,0,0,0,0,0,0,0,0,0,0,0,0,0,0,0,0,0,0,1,2,4,9,12,44,78,153,281,455,753,1206,1785,2635,3789,4954,6697,8488,10347,12490,14241,16047,17617,18777,19563,19774,19162,18240,17231,15683,13768,12265,10336,8730,7107,5660,4529,3344,2532,1923,1325,1028,704,429,299,202,117,95,41,41,20,12,6,3,3,1,0,1,0,1,8202685,5873089,2098859,498998,89029,12898,1494,150,12,2,15777338,999878,0,0,0,0
1000000,12.8,16777216,12,5,4,128,56,50331648.0,43826304,38348032,0.238093058268,16,128,95.9950032377,9,0.000316495336157,0,0,0,0,0,0,0,0,0,0,0,0,0,0,0,0,0,0,0,0,0,0,0,0,0,0,0,0,0,0,0,0,0,0,0,0,0,0,0,0,0,0,0,0,0,0,1,2,3,14,27,71,110,200,322,543,897,1376,2100,2978,4147,5570,7039,9096,10658,12550,14539,16244,17699,18544,18865,18760,18377,17739,16336,14864,13238,11327,9872,8148,6540,5306,4166,3175,2345,1745,1263,851,659,458,291,215,121,62,57,25,28,13,7,5,2,2,0,1,8204409,5870428,2098581,500471,88962,12644,1560,151,9,1,15777335,999881,0,0,0,0
1000000,12.8,16777216,12,5,4,128,55,50331648.0,43826304,39045248,0.224240620931,26,125,94.2805295026,9,0.000316495336157,0,1,0,0,0,0,0,0,0,0,0,0,0,0,0,0,0,0,0,0,0,0,0,0,0,0,0,0,0,0,0,0,0,0,0,0,0,0,0,0,0,0,1,1,1,1,2,7,20,45,63,125,268,448,746,1204,1798,2629,3743,5163,6668,8406,10352,12404,14423,16124,17467,18697,19613,19464,19290,18443,17164,15778,13886,12147,10384,8857,7021,5677,4321,3417,2442,1990,1383,962,704,488,250,193,135,84,60,33,12,15,8,7,1,4,1,0,0,0,8205704,5869018,2098170,500443,89490,12662,1562,155,11,1,15777340,999876,0,0,0,0
1000000,12.8,16777216,12,5,4,128,56,50331648.0,43826304,38348032,0.238093058268,15,126,95.9944758573,9,0.000316495336157,0,0,0,0,0,0,0,0,0,0,0,0,0,0,0,0,0,0,0,0,0,0,0,0,0,0,0,0,0,0,0,0,0,0,0,0,0,0,0,0,0,0,0,0,0,2,0,3,6,18,29,61,88,182,347,549,946,1419,2086,3000,4102,5499,7035,8906,11004,12595,14419,16136,17607,18609,18933,18711,18595,17590,16404,14851,13163,11457,9669,8096,6567,5407,4128,3193,2363,1756,1314,900,614,409,270,215,125,79,61,30,18,13,6,6,1,1,0,0,8203888,5870970,2099557,499135,89120,12878,1499,153,15,1,15777336,999880,0,0,0,0
1000000,12.8,16777216,12,5,4,128,55,50331648.0,43826304,39045248,0.224240620931,27,123,94.281355621,9,0.000316495336157,0,0,1,0,0,0,0,0,0,0,0,0,0,0,0,0,0,0,0,0,0,0,0,0,0,0,0,0,0,0,0,0,0,0,0,0,0,0,0,0,0,0,0,0,1,3,8,13,11,51,99,141,260,492,823,1170,1825,2678,3713,4933,6557,8383,10382,12444,14461,16182,17480,18793,19460,19720,19100,18295,17251,15627,13963,12259,10494,8490,7048,5742,4455,3416,2593,1950,1320,989,667,451,309,204,124,79,48,41,19,9,7,5,2,0,0,0,0,0,8206520,5867460,2098496,500949,89517,12543,1559,158,12,2,15777328,999888,0,0,0,0
1000000,12.8,16777216,12,5,4,128,56,50331648.0,43826304,38348032,0.238093058268,13,127,95.9961080662,9,0.000316495336157,0,0,0,0,0,0,0,0,0,0,0,0,0,0,0,0,0,0,0,0,0,0,0,0,0,0,0,0,0,0,0,0,0,0,0,0,0,0,0,0,0,0,1,0,0,0,1,2,7,12,28,63,106,214,328,592,930,1444,2180,2966,4035,5391,7042,8940,10783,12630,14477,16382,17563,18220,18949,19109,18564,17600,16361,14872,12963,11307,9779,8296,6558,5328,4163,3221,2421,1741,1261,931,653,402,245,200,120,79,46,28,25,15,7,7,2,0,3,0,8203455,5872844,2096554,500762,89209,12690,1540,144,16,2,15777306,999910,0,0,0,0
1000000,12.8,16777216,12,5,4,128,56,50331648.0,43826304,38348032,0.238093058268,13,126,95.9954705368,10,0.000316495336157,0,0,0,0,0,0,0,0,0,0,0,0,0,0,0,0,0,0,0,0,0,0,0,0,0,0,0,0,0,0,0,0,0,0,0,0,0,0,0,0,0,0,1,0,0,0,0,4,5,11,23,63,99,211,370,586,895,1371,2060,2907,4074,5538,7127,9014,10787,12700,14701,16159,17588,18386,18866,18792,18722,17480,16270,14789,13096,11550,9874,8057,6605,5269,4094,3146,2374,1762,1313,917,662,454,291,178,140,77,52,33,22,9,7,5,0,7,0,0,8204123,5870893,2098542,500158,89071,12793,1483,138,14,0,15777325,999891,0,0,0,0
1000000,12.8,16777216,12,5,4,128,57,50331648.0,43826304,37675264,0.251459757487,14,128,97.7084406363,9,0.000316495336157,0,0,0,0,0,0,0,0,0,0,0,0,0,0,0,0,0,0,0,0,0,0,0,0,0,0,0,0,0,0,0,0,0,0,0,0,0,0,0,0,0,0,0,0,0,0,0,0,4,11,8,17,39,79,129,272,397,674,1048,1595,2365,3388,4497,5887,7534,9456,11120,12936,14653,16303,17365,18163,18589,18339,17834,16594,15710,13865,12409,10846,9131,7555,6145,4911,3815,2897,2205,1661,1171,868,599,428,290,179,117,91,54,35,29,15,9,4,1,1,8205214,5869934,2098223,499669,89638,12848,1517,157,15,1,15777340,999876,0,0,0,0
