n,c,m,k,climit,width,word,crate,usize,psize,csize,cfactor,minfill,maxfill,avgfill,maxc,fp,b16,b17,b18,b19,b20,b21,b22,b23,b24,b25,b26,b27,b28,b29,b30,b31,b32,b33,b34,b35,b36,b37,b38,b39,b40,b41,b42,b43,b44,b45,b46,b47,b48,b49,b50,b51,b52,b53,b54,b55,b56,b57,b58,b59,b60,b61,b62,b63,b64,c0,c1,c2,c3,c4,c5,c6,c7,c8,c9,t0,t1,t2,t3,t4,camsize
800000,3.2,4194304,4,4,4,64,24,12582912.0,9942080,11184832,0.11110941569,26,64,42.0934064991,8,0.0811351893368,0,0,0,0,0,0,0,0,0,0,3,1,3,36,105,283,654,1211,2310,3888,6066,8483,11014,13377,15556,16557,16843,16185,14355,12338,10302,7913,5969,4182,2732,1821,1084,655,386,184,134,65,39,16,9,3,0,0,1,1955005,1493515,568801,144746,27434,4229,518,52,4,0,3397052,794570,2682,0,0,1
800000,3.2,4194304,4,4,4,64,25,12582912.0,9942080,10737472,0.146662394206,6,64,43.8457320308,8,0.0811351893368,0,0,0,0,0,0,0,0,0,0,0,0,1,3,25,51,177,400,804,1524,2792,4272,6325,8731,11359,13419,14668,16044,15451,14838,13382,11567,9212,7204,5218,3695,2573,1679,1044,571,355,191,111,41,25,12,1,6,1,1954990,1494075,567966,144893,27562,4211,550,53,4,0,3396979,794728,2597,0,0,1
800000,3.2,4194304,4,4,4,64,25,12582912.0,9942080,10737472,0.146662394206,7,64,43.8458154769,9,0.0811351893368,0,0,0,0,0,0,0,0,0,0,0,0,1,5,18,70,157,345,841,1594,2599,4297,6483,8810,11245,13367,14716,15871,15856,14971,13275,11244,9124,7193,5284,3699,2661,1678,1042,633,341,179,92,50,18,6,5,1,1,1955792,1492324,569048,144791,27536,4197,544,65,6,1,3397032,794622,2650,0,0,3
800000,3.2,4194304,4,4,4,64,25,12582912.0,9942080,10737472,0.146662394206,5,64,43.8468704738,8,0.0811351893368,0,0,0,0,0,0,0,0,0,0,0,0,1,8,18,61,174,364,773,1592,2744,4406,6465,8818,10971,13448,15001,15773,15575,14818,13356,11353,9106,7143,5313,3777,2581,1664,1074,626,353,202,117,43,23,16,11,2,2,1956059,1492014,568690,145224,27534,4225,496,55,7,0,3397010,794654,2640,0,0,2
800000,3.2,4194304,4,4,4,64,24,12582912.0,9942080,11184832,0.11110941569,27,61,42.0896757323,8,0.0811351893368,0,0,0,0,0,0,0,0,0,0,0,3,4,31,104,273,626,1308,2335,3864,6006,8406,11091,13380,15697,16491,16878,15826,14540,12594,10173,7876,5910,4208,2784,1835,1097,647,350,226,110,47,28,11,2,2,0,0,0,1956182,1492374,568204,144722,28020,4184,554,62,2,0,3397009,794664,2631,0,0,5
800000,3.2,4194304,4,4,4,64,25,12582912.0,9942080,10737472,0.146662394206,9,63,43.8443313286,8,0.0811351893368,0,0,0,0,0,0,0,0,0,0,0,0,2,7,21,66,162,347,871,1535,2749,4354,6378,8810,11229,13147,14859,15808,15765,14790,13572,11340,9202,7266,5230,3689,2533,1627,1080,608,329,197,101,51,24,14,7,2,0,1955137,1492719,570472,143482,27562,4356,516,54,6,0,3397036,794624,2644,0,0,3
800000,3.2,4194304,4,4,4,64,24,12582912.0,9942080,11184832,0.11110941569,27,63,42.0926454684,8,0.0811351893368,0,0,0,0,0,0,0,0,0,0,0,3,9,27,110,257,681,1233,2325,3854,6009,8468,10885,13512,15437,16882,16844,15912,14493,12555,10172,7819,5915,4210,2780,1740,1153,698,377,195,103,55,35,8,2,2,2,1,0,1956128,1491759,569077,145024,27533,4188,532,58,5,0,3397004,794682,2617,1,0,5
800000,3.2,4194304,4,4,4,64,25,12582912.0,9942080,10737472,0.146662394206,8,64,43.8445041812,9,0.0811351893368,0,0,0,0,0,0,0,0,0,0,0,0,0,3,21,62,177,412,816,1548,2759,4370,6369,8736,11165,13349,14919,15708,15914,14710,13367,11344,9194,7278,5088,3771,2569,1704,1016,600,375,222,108,61,22,5,7,1,2,1955704,1493374,567432,145338,27554,4325,504,69,3,1,3397049,794603,2652,0,0,2
800000,3.2,4194304,4,4,4,64,25,12582912.0,9942080,10737472,0.146662394206,8,64,43.8455770595,8,0.0811351893368,0,0,0,0,0,0,0,0,0,0,0,0,0,4,25,77,166,378,792,1636,2776,4237,6449,8770,11027,13412,14781,15793,15625,15113,13320,11373,9207,7185,5341,3836,2434,1619,1037,611,325,223,105,46,22,17,6,2,2,1955148,1492988,569692,144129,27534,4194,552,65,2,0,3397076,794546,2682,0,0,2
800000,3.2,4194304,4,4,4,64,24,12582912.0,9942080,11184832,0.11110941569,27,63,42.0921590955,8,0.0811351893368,0,0,0,0,0,0,0,0,0,0,0,1,8,38,100,260,634,1288,2354,3964,5985,8460,11086,13543,15385,16507,16735,15836,14578,12577,10185,7954,5781,4203,2887,1841,1135,657,378,196,103,54,26,14,5,4,0,1,0,1955968,1492098,568964,144880,27599,4179,548,63,5,0,3397039,794601,2664,0,0,3
