n,c,m,k,climit,width,word,crate,usize,psize,csize,cfactor,minfill,maxfill,avgfill,maxc,fp,b12,b13,b14,b15,b16,b17,b18,b19,b20,b21,b22,b23,b24,b25,b26,b27,b28,b29,b30,b31,b32,b33,b34,b35,b36,b37,b38,b39,b40,b41,b42,b43,b44,b45,b46,b47,b48,b49,b50,b51,b52,b53,b54,b55,b56,b57,b58,b59,b60,b61,b62,b63,b64,c0,c1,c2,c3,c4,c5,c6,c7,c8,c9,t0,t1,t2,t3,t4,camsize
100000,12.8,2097152,15,5,4,64,24,6291456.0,5592448,5592448,0.111104329427,14,63,41.1420200957,8,4.22143468146e-05,0,0,1,0,0,0,0,0,0,0,0,0,0,0,0,0,16,39,96,266,558,1069,1966,2918,4114,5588,6858,7733,8322,8433,8156,7253,6266,5074,3890,2892,2067,1481,922,586,371,203,124,65,24,17,9,1,1,1,1,1,0,1025447,733954,262354,62330,11254,1578,207,26,2,0,1997152,100000,0,0,0,0
100000,12.8,2097152,15,5,4,64,25,6291456.0,5592448,5368768,0.146657307943,4,63,42.855913312,8,4.22143468146e-05,0,0,0,0,0,0,0,0,0,0,0,0,0,0,0,0,0,2,19,66,151,371,729,1275,2137,3214,4450,5672,6761,7646,8005,7871,7356,6628,5593,4472,3530,2697,1906,1277,853,510,308,184,95,46,30,15,10,4,1,2,0,1025476,733844,262380,62510,11117,1602,195,24,4,0,1997153,99999,0,0,0,0
100000,12.8,2097152,15,5,4,64,25,6291456.0,5592448,5368768,0.146657307943,3,64,42.8558894704,8,4.22143468146e-05,0,0,0,0,0,0,0,0,0,0,0,0,0,0,0,0,0,10,25,66,179,374,725,1361,2193,3213,4326,5608,6731,7597,8045,7817,7391,6603,5645,4538,3543,2722,1796,1251,802,560,338,189,116,60,32,15,6,6,1,1,1,1025615,733684,262340,62516,11153,1623,194,25,2,0,1997152,100000,0,0,0,0
100000,12.8,2097152,15,5,4,64,25,6291456.0,5592448,5368768,0.146657307943,3,64,42.8550788561,8,4.22143468146e-05,0,0,0,0,0,0,0,0,0,0,0,0,0,0,0,0,1,6,22,60,156,374,755,1316,2155,3265,4438,5567,6752,7566,7968,7929,7467,6442,5616,4661,3501,2638,1820,1301,843,523,320,186,108,65,30,17,6,7,2,2,1,1026351,732412,262710,62716,11068,1669,216,9,1,0,1997154,99998,0,0,0,0
100000,12.8,2097152,15,5,4,64,25,6291456.0,5592448,5368768,0.146657307943,2,63,42.8575583821,7,4.22143468146e-05,0,0,0,0,0,0,0,0,0,0,0,0,0,0,0,1,2,5,17,64,187,360,678,1288,2162,3181,4514,5589,6832,7539,7935,7912,7420,6782,5563,4569,3470,2582,1864,1236,845,541,330,175,101,65,41,18,11,4,2,1,0,1025310,733927,262465,62617,11106,1547,161,19,0,0,1997154,99998,0,0,0,0
100000,12.8,2097152,15,5,4,64,25,6291456.0,5592448,5368768,0.146657307943,3,62,42.8557345,9,4.22143468146e-05,0,0,0,0,0,0,0,0,0,0,0,0,0,0,0,0,1,5,25,57,191,367,721,1320,2085,3215,4381,5663,6730,7655,7874,7956,7352,6763,5727,4596,3458,2602,1837,1207,846,528,282,187,119,70,33,20,9,3,1,0,0,1025737,733650,262183,62457,11289,1618,196,20,1,1,1997154,99998,0,0,0,0
100000,12.8,2097152,15,5,4,64,25,6291456.0,5592448,5368768,0.146657307943,2,63,42.854554341,8,4.22143468146e-05,0,0,0,0,0,0,0,0,0,0,0,0,0,0,0,0,0,4,27,60,157,384,768,1321,2096,3201,4507,5585,6669,7678,7936,7835,7485,6632,5579,4676,3516,2534,1848,1255,843,552,310,185,125,64,27,12,11,3,0,1,0,1025557,733857,262285,62451,11089,1690,200,22,1,0,1997155,99997,0,0,0,0
100000,12.8,2097152,15,5,4,64,25,6291456.0,5592448,5368768,0.146657307943,2,62,42.8560325199,7,4.22143468146e-05,0,0,0,0,0,0,0,0,0,0,0,0,0,0,0,0,1,6,26,75,164,408,717,1337,2152,3290,4393,5553,6571,7463,8090,7814,7551,6590,5813,4662,3428,2677,1771,1255,797,531,353,184,100,53,29,17,9,3,3,0,0,1025812,733345,262420,62573,11143,1655,183,21,0,0,1997152,100000,0,0,0,0
100000,12.8,2097152,15,5,4,64,26,6291456.0,5592448,5162240,0.179484049479,28,63,44.5709025539,8,4.22143468146e-05,0,0,0,0,0,0,0,0,0,0,0,0,0,0,0,0,1,0,2,18,29,122,226,493,889,1587,2382,3503,4727,5754,6523,7247,7510,7281,6726,6071,5196,4112,3187,2419,1606,1130,756,487,282,191,96,47,29,19,6,6,0,1026091,733161,262075,62674,11317,1626,189,17,2,0,1997152,100000,0,0,0,0
100000,12.8,2097152,15,5,4,64,24,6291456.0,5592448,5592448,0.111104329427,9,62,41.1420658717,8,4.22143468146e-05,0,0,0,0,0,0,0,0,0,0,0,0,0,0,2,1,7,35,107,300,584,1041,1837,3005,4312,5563,6780,7871,8259,8338,7954,7243,6264,4973,3941,3022,2129,1441,976,591,389,193,106,67,24,8,10,6,0,1,1,0,0,1025696,733049,263219,62315,11072,1597,183,19,2,0,1997155,99997,0,0,0,0
