n,c,m,k,climit,width,word,crate,usize,psize,csize,cfactor,minfill,maxfill,avgfill,maxc,fp,b16,b17,b18,b19,b20,b21,b22,b23,b24,b25,b26,b27,b28,b29,b30,b31,b32,b33,b34,b35,b36,b37,b38,b39,b40,b41,b42,b43,b44,b45,b46,b47,b48,b49,b50,b51,b52,b53,b54,b55,b56,b57,b58,b59,b60,b61,b62,b63,b64,c0,c1,c2,c3,c4,c5,c6,c7,c8,c9,t0,t1,t2,t3,t4,camsize
100000,0.8,131072,1,4,4,64,26,393216.0,310720,322688,0.179361979167,9,62,45.5963903213,7,0.533707595198,0,0,0,0,0,0,0,0,0,0,0,0,0,0,0,0,3,1,7,16,37,67,104,148,223,283,341,398,427,463,451,407,409,337,268,190,170,96,75,50,27,23,8,6,3,1,2,0,0,61046,46702,17849,4466,859,136,13,1,0,0,62055,46702,17849,4466,0,4201
100000,0.8,131072,1,4,4,64,27,393216.0,310720,310720,0.209798177083,21,64,47.3491246138,7,0.533707595198,0,0,0,0,0,1,0,0,0,0,0,0,0,0,0,0,0,1,1,7,10,19,43,86,93,159,231,280,349,429,386,454,424,377,350,302,248,206,147,91,59,42,16,19,11,5,5,2,2,60961,46920,17685,4492,863,127,22,2,0,0,61975,46920,17685,4492,0,4233
100000,0.8,131072,1,4,4,64,26,393216.0,310720,322688,0.179361979167,9,64,45.6011503372,7,0.533707595198,0,0,0,0,0,0,0,0,0,0,0,0,0,0,0,0,1,3,8,14,33,68,100,133,197,292,344,405,489,447,462,422,394,326,260,205,148,95,64,58,33,17,8,10,2,1,1,0,1,61067,46674,17818,4526,849,119,14,5,0,0,62054,46674,17818,4526,0,4110
100000,0.8,131072,1,4,4,64,26,393216.0,310720,322688,0.179361979167,13,63,45.5896469655,8,0.533707595198,0,0,0,0,0,0,0,0,0,0,0,0,0,0,0,0,2,3,8,18,34,63,120,162,200,276,352,385,432,443,464,435,381,324,267,210,159,120,88,40,18,15,11,6,2,1,1,1,0,61176,46546,17805,4524,858,143,18,1,1,0,62197,46546,17805,4524,0,4270
100000,0.8,131072,1,4,4,64,26,393216.0,310720,322688,0.179361979167,10,62,45.5892502975,7,0.533707595198,0,0,0,0,0,0,0,0,0,0,0,0,0,0,0,1,0,4,15,14,37,53,102,134,208,278,371,419,447,459,444,432,393,322,256,208,140,115,72,43,25,20,14,9,3,2,1,0,0,61009,46773,17854,4414,860,138,21,3,0,0,62031,46773,17854,4414,0,4277
100000,0.8,131072,1,4,4,64,27,393216.0,310720,310720,0.209798177083,23,64,47.3485066941,6,0.533707595198,0,0,0,0,0,0,0,1,0,0,0,0,0,0,0,0,0,0,3,6,11,17,37,69,115,156,234,308,333,385,440,465,418,360,369,294,234,186,122,95,76,49,40,15,10,2,0,3,2,61130,46574,17873,4470,871,140,14,0,0,0,62155,46574,17873,4470,0,4268
100000,0.8,131072,1,4,4,64,26,393216.0,310720,322688,0.179361979167,10,64,45.607497025,7,0.533707595198,0,0,0,0,0,0,0,0,0,0,0,0,0,0,0,0,0,6,6,13,30,56,87,149,214,292,330,428,448,470,463,426,390,338,269,193,147,94,82,42,29,12,14,7,3,1,1,0,1,61034,46729,17775,4570,830,116,17,1,0,0,61998,46729,17775,4570,0,4009
100000,0.8,131072,1,4,4,64,27,393216.0,310720,310720,0.209798177083,24,63,47.3567456231,8,0.533707595198,0,0,0,0,0,0,0,0,1,0,0,0,0,0,0,1,0,0,1,5,12,21,34,70,111,150,220,256,363,435,461,419,434,402,332,275,237,186,166,93,80,39,23,11,9,2,4,2,0,61150,46531,17859,4523,871,133,4,0,1,0,62159,46531,17859,4523,0,4181
100000,0.8,131072,1,4,4,64,26,393216.0,310720,322688,0.179361979167,11,64,45.5995636652,7,0.533707595198,0,0,0,0,0,0,0,0,0,0,0,0,0,0,0,0,3,8,6,16,27,63,91,174,199,305,368,372,414,468,459,441,377,302,276,221,144,110,79,45,35,17,9,5,3,3,0,0,1,61247,46469,17696,4644,890,110,15,1,0,0,62263,46469,17696,4644,0,4207
100000,0.8,131072,1,4,4,64,26,393216.0,310720,322688,0.179361979167,10,64,45.5894486315,7,0.533707595198,0,0,0,0,0,0,0,0,0,0,0,0,0,0,0,1,1,4,4,15,39,60,118,144,208,269,356,402,430,474,415,443,414,323,307,199,152,90,55,39,27,24,14,6,2,4,0,1,1,61213,46469,17849,4501,892,129,17,2,0,0,62253,46469,17849,4501,0,4329
