n,c,m,k,climit,width,word,crate,usize,psize,csize,cfactor,minfill,maxfill,avgfill,maxc,fp,b16,b17,b18,b19,b20,b21,b22,b23,b24,b25,b26,b27,b28,b29,b30,b31,b32,b33,b34,b35,b36,b37,b38,b39,b40,b41,b42,b43,b44,b45,b46,b47,b48,b49,b50,b51,b52,b53,b54,b55,b56,b57,b58,b59,b60,b61,b62,b63,b64,c0,c1,c2,c3,c4,c5,c6,c7,c8,c9,t0,t1,t2,t3,t4,camsize
10000,0.8,8192,1,4,4,64,24,24576.0,19456,21888,0.109375,17,64,50.5175438596,8,0.704999325696,0,1,0,0,0,0,0,0,0,0,0,0,0,0,0,0,0,0,0,0,0,0,1,3,2,5,13,7,11,16,13,19,22,28,33,21,32,20,21,18,15,12,6,9,0,0,7,4,3,2410,2950,1821,734,203,55,15,3,1,0,2687,2950,1821,734,0,1206
10000,0.8,8192,1,4,4,64,24,24576.0,19456,21888,0.109375,14,64,50.7280701754,8,0.704999325696,0,0,0,0,0,0,0,0,0,0,0,0,0,0,0,0,0,0,0,0,0,1,0,2,1,4,4,7,16,11,21,19,28,29,27,19,27,28,20,18,17,6,7,11,9,2,6,0,1,2444,2907,1810,739,224,52,13,2,1,0,2736,2907,1810,739,0,1256
10000,0.8,8192,1,4,4,64,23,24576.0,19456,22848,0.0703125,10,63,48.4817927171,7,0.704999325696,0,0,0,0,0,0,0,0,0,0,0,0,0,0,0,0,0,0,0,2,0,2,4,6,6,3,11,14,23,18,24,29,37,28,28,23,30,14,16,13,7,5,6,3,1,0,1,2,0,2437,2933,1787,728,239,58,7,3,0,0,2744,2933,1787,728,0,1309
10000,0.8,8192,1,4,4,64,24,24576.0,19456,21888,0.109375,14,63,50.6257309942,9,0.704999325696,0,0,0,0,0,0,0,0,0,0,0,0,0,0,0,0,0,0,0,0,0,0,1,1,1,2,7,8,11,12,23,20,33,24,28,25,27,19,19,15,22,15,13,4,6,4,0,1,0,2422,2925,1835,710,240,50,7,2,0,1,2722,2925,1835,710,0,1275
10000,0.8,8192,1,4,4,64,23,24576.0,19456,22848,0.0703125,12,62,48.2717086835,7,0.704999325696,0,0,0,0,0,0,0,0,0,0,0,0,0,0,0,0,0,0,0,0,2,1,4,9,4,6,16,12,21,22,27,35,32,31,22,21,20,13,12,14,14,4,3,8,1,1,1,0,0,2409,2970,1807,705,224,58,18,1,0,0,2710,2970,1807,705,0,1301
10000,0.8,8192,1,4,4,64,22,24576.0,19456,23872,0.0286458333333,20,62,46.471849866,8,0.704999325696,0,0,0,0,1,0,0,0,0,0,0,0,0,0,0,0,0,0,1,1,3,5,7,10,14,17,16,24,37,26,33,25,17,39,18,20,19,10,12,3,2,9,0,1,2,0,1,0,0,2437,2917,1809,738,222,55,11,2,1,0,2728,2917,1809,738,0,1251
10000,0.8,8192,1,4,4,64,22,24576.0,19456,23872,0.0286458333333,15,63,46.1715817694,9,0.704999325696,0,0,0,0,0,0,0,0,0,0,0,0,0,0,0,1,1,0,1,3,6,7,6,9,13,22,16,30,24,34,18,27,36,23,19,19,14,12,8,4,6,6,2,3,1,0,0,1,0,2426,3000,1694,761,244,54,10,2,0,1,2737,3000,1694,761,0,1329
10000,0.8,8192,1,4,4,64,23,24576.0,19456,22848,0.0703125,8,62,48.4341736695,8,0.704999325696,0,0,0,0,0,0,0,0,0,0,0,0,0,0,0,0,0,0,0,0,0,1,5,6,5,11,12,13,19,31,27,25,24,25,22,27,28,20,15,11,7,9,6,1,4,1,1,0,0,2417,2958,1769,759,235,41,10,2,1,0,2706,2958,1769,759,0,1227
10000,0.8,8192,1,4,4,64,23,24576.0,19456,22848,0.0703125,7,60,48.5266106443,7,0.704999325696,0,0,0,0,0,0,0,0,0,0,0,0,0,0,0,0,0,0,0,0,0,2,3,2,5,4,18,14,20,20,27,28,37,30,25,26,24,19,14,13,7,6,3,5,4,0,0,0,0,2422,2920,1840,724,216,57,12,1,0,0,2708,2920,1840,724,0,1228
10000,0.8,8192,1,4,4,64,24,24576.0,19456,21888,0.109375,20,64,50.5409356725,6,0.704999325696,0,0,0,0,1,0,0,0,0,0,0,0,0,0,0,0,0,0,0,0,0,1,1,4,3,7,6,10,12,11,15,21,21,26,31,21,25,25,21,19,24,7,7,7,6,6,3,0,1,2410,2952,1807,737,220,53,13,0,0,0,2696,2952,1807,737,0,1223
10000,0.8,8192,1,4,4,64,23,24576.0,19456,22848,0.0703125,11,64,48.5602240896,7,0.704999325696,0,0,0,0,0,0,0,0,0,0,0,0,0,0,0,0,0,0,0,1,1,1,3,6,7,8,9,14,7,27,30,30,33,32,25,24,33,13,8,12,14,5,3,5,2,1,1,0,1,2448,2908,1812,725,217,69,11,2,0,0,2747,2908,1812,725,0,1293
10000,0.8,8192,1,4,4,64,23,24576.0,19456,22848,0.0703125,10,61,48.6694677871,7,0.704999325696,0,0,0,0,0,0,0,0,0,0,0,0,0,0,0,0,0,0,0,0,0,3,2,7,4,9,14,14,23,18,24,19,36,30,25,21,24,19,19,12,9,6,7,6,4,1,0,0,0,2461,2905,1756,778,223,58,10,1,0,0,2753,2905,1756,778,0,1249
10000,0.8,8192,1,4,4,64,23,24576.0,19456,22848,0.0703125,10,62,48.4173669468,8,0.704999325696,0,0,0,0,0,0,0,0,0,0,0,0,0,0,0,0,0,0,0,0,0,3,5,8,3,12,17,17,16,23,18,24,33,25,25,25,24,20,14,14,5,9,7,3,2,2,2,0,0,2417,2941,1826,720,211,63,11,2,1,0,2705,2941,1826,720,0,1247
10000,0.8,8192,1,4,4,64,22,24576.0,19456,23872,0.0286458333333,18,62,46.2680965147,7,0.704999325696,0,0,1,0,0,0,0,0,0,0,0,0,0,0,0,0,0,1,0,3,6,7,6,11,13,10,22,25,34,21,33,29,32,32,16,14,16,11,9,4,6,3,4,1,2,0,1,0,0,2401,2968,1804,722,242,41,13,1,0,0,2698,2968,1804,722,0,1258
10000,0.8,8192,1,4,4,64,23,24576.0,19456,22848,0.0703125,11,61,48.268907563,7,0.704999325696,0,0,0,0,0,0,0,0,0,0,0,0,0,0,0,0,0,0,0,0,1,4,8,4,11,5,13,20,15,23,21,24,31,22,25,27,25,18,22,11,9,8,2,2,2,3,0,0,0,2386,2983,1815,719,226,53,9,1,0,0,2675,2983,1815,719,0,1230
10000,0.8,8192,1,4,4,64,21,24576.0,19456,25024,-0.0182291666667,4,61,44.2813299233,7,0.704999325696,0,0,0,0,0,0,0,0,0,0,0,0,0,0,0,0,1,3,2,2,5,10,16,18,18,26,27,44,32,30,39,30,22,12,18,7,8,6,7,5,0,0,1,0,0,1,0,0,0,2427,2940,1780,761,225,41,14,4,0,0,2711,2940,1780,761,0,1217
10000,0.8,8192,1,4,4,64,22,24576.0,19456,23872,0.0286458333333,17,60,46.509383378,8,0.704999325696,0,1,0,0,0,0,0,0,0,0,0,0,0,0,0,0,0,1,0,0,2,2,9,12,8,16,25,31,27,37,27,19,24,23,22,29,14,14,7,12,4,4,1,1,1,0,0,0,0,2431,2911,1825,741,220,50,13,0,1,0,2715,2911,1825,741,0,1216
10000,0.8,8192,1,4,4,64,21,24576.0,19456,25024,-0.0182291666667,4,61,44.3759590793,8,0.704999325696,0,0,0,0,0,0,0,0,0,0,0,0,0,0,0,1,0,1,4,4,4,5,13,25,19,24,30,45,38,29,27,30,14,15,14,16,10,9,6,2,2,2,0,0,0,1,0,0,0,2433,2910,1821,759,198,53,13,4,1,0,2702,2910,1821,759,0,1171
10000,0.8,8192,1,4,4,64,22,24576.0,19456,23872,0.0286458333333,18,61,46.5120643432,8,0.704999325696,0,0,1,0,0,0,0,0,0,0,0,0,0,0,0,0,0,0,0,1,4,5,9,8,15,12,14,29,26,35,31,23,32,29,20,25,16,11,6,7,4,6,1,1,1,1,0,0,0,2447,2918,1771,772,216,54,9,4,1,0,2731,2918,1771,772,0,1224
10000,0.8,8192,1,4,4,64,23,24576.0,19456,22848,0.0703125,8,64,48.5770308123,11,0.704999325696,0,0,0,0,0,0,0,0,0,0,0,0,0,0,0,0,0,0,1,1,0,3,2,5,6,6,12,26,24,20,20,26,18,30,23,32,27,10,15,10,11,6,9,4,4,2,1,1,1,2477,2915,1727,750,254,56,10,2,0,0,2800,2915,1727,750,0,1381
