n,c,m,k,climit,width,word,crate,usize,psize,csize,cfactor,minfill,maxfill,avgfill,maxc,fp,b32,b33,b34,b35,b36,b37,b38,b39,b40,b41,b42,b43,b44,b45,b46,b47,b48,b49,b50,b51,b52,b53,b54,b55,b56,b57,b58,b59,b60,b61,b62,b63,b64,b65,b66,b67,b68,b69,b70,b71,b72,b73,b74,b75,b76,b77,b78,b79,b80,b81,b82,b83,b84,b85,b86,b87,b88,b89,b90,b91,b92,b93,b94,b95,b96,b97,b98,b99,b100,b101,b102,b103,b104,b105,b106,b107,b108,b109,b110,b111,b112,b113,b114,b115,b116,b117,b118,b119,b120,b121,b122,b123,b124,b125,b126,b127,b128,c0,c1,c2,c3,c4,c5,c6,c7,c8,c9,t0,t1,t2,t3,t4,camsize
10000,1.6,16384,2,4,4,128,48,49152.0,38144,43776,0.109375,37,124,100.739766082,7,0.497008551807,0,0,0,0,0,1,0,0,0,0,0,0,0,0,0,0,0,0,0,0,0,0,0,0,0,0,0,0,0,0,0,0,0,0,0,0,0,0,0,0,0,0,0,0,0,0,0,1,0,0,1,1,1,1,2,2,5,5,5,6,10,9,13,17,25,14,14,17,17,14,16,23,17,23,13,6,6,11,8,8,10,3,6,3,4,0,1,1,0,0,0,1,1,0,0,0,0,4769,5972,3629,1446,438,106,19,5,0,0,7780,7366,1217,21,0,137
10000,1.6,16384,2,4,4,128,52,49152.0,38144,40448,0.177083333333,6,127,109.414556962,7,0.497008551807,0,0,0,0,0,0,0,0,0,0,0,0,0,0,0,0,0,0,0,0,0,0,0,0,0,0,0,0,0,0,0,0,0,0,0,0,0,0,0,0,0,0,0,0,0,0,0,0,0,0,0,0,0,0,0,0,1,0,0,0,2,1,0,3,4,2,5,5,7,9,11,10,9,8,20,23,14,20,21,25,15,10,12,8,17,9,8,4,9,7,4,3,1,1,4,3,0,4833,5903,3586,1466,479,99,11,7,0,0,7818,7299,1243,24,0,143
10000,1.6,16384,2,4,4,128,49,49152.0,38144,42880,0.127604166667,36,122,103.510447761,8,0.497008551807,0,0,0,0,1,0,0,0,0,0,0,0,0,0,0,0,0,0,0,0,0,0,0,0,0,0,0,0,0,0,0,0,0,0,0,0,0,0,0,0,0,0,0,0,0,0,0,0,0,0,0,0,0,0,1,1,0,0,6,2,6,8,4,7,9,15,20,13,19,17,11,22,22,19,17,22,24,7,12,10,7,7,6,4,3,3,4,0,4,1,1,0,0,0,0,0,0,4853,5829,3667,1464,439,107,23,1,1,0,7798,7333,1232,21,0,140
10000,1.6,16384,2,4,4,128,50,49152.0,38144,41984,0.145833333333,72,126,105.292682927,8,0.497008551807,0,0,0,0,0,0,0,0,0,0,0,0,0,0,0,0,0,0,0,0,0,0,0,0,0,0,0,0,0,0,0,0,0,0,0,0,0,0,0,0,1,0,0,0,0,0,0,0,0,0,1,0,1,0,0,0,1,0,2,2,2,9,4,5,12,11,7,17,10,10,13,15,22,23,18,19,14,12,15,16,12,9,10,8,9,4,6,2,0,1,3,0,0,1,1,0,0,4805,5920,3630,1471,420,109,24,4,1,0,7794,7341,1229,20,0,141
10000,1.6,16384,2,4,4,128,50,49152.0,38144,41984,0.145833333333,80,127,105.201219512,7,0.497008551807,0,0,0,0,0,0,0,0,0,0,0,0,0,0,0,0,0,0,0,0,0,0,0,0,0,0,0,0,0,0,0,0,0,0,0,0,0,0,0,0,0,0,0,0,0,0,0,0,1,0,0,0,1,1,1,1,1,1,1,4,7,5,6,7,9,8,12,10,11,14,21,17,12,17,15,18,14,13,16,17,12,8,5,10,6,7,3,5,4,2,1,0,2,0,1,1,0,4820,5932,3594,1433,475,102,25,3,0,0,7824,7291,1247,22,0,149
10000,1.6,16384,2,4,4,128,49,49152.0,38144,42880,0.127604166667,28,122,103.414925373,8,0.497008551807,0,0,0,0,0,0,0,0,0,0,0,0,0,0,0,0,0,0,0,0,0,0,0,0,0,0,0,0,0,0,0,0,0,0,0,0,0,0,0,0,0,0,0,0,0,0,0,0,0,0,0,0,0,0,0,0,0,4,2,2,4,7,12,9,13,15,7,18,21,18,20,19,19,19,19,10,12,13,13,14,10,5,5,10,4,2,2,3,2,0,1,0,0,0,0,0,0,4858,5832,3680,1418,456,118,15,6,1,0,7830,7309,1216,29,0,172
10000,1.6,16384,2,4,4,128,48,49152.0,38144,43776,0.109375,35,126,100.938596491,8,0.497008551807,0,0,0,1,0,0,0,0,0,0,0,0,0,0,0,0,0,0,0,0,0,0,0,0,0,0,0,0,0,0,0,0,0,0,0,0,0,0,0,0,0,0,0,0,0,0,0,0,0,1,0,2,0,1,2,2,2,5,7,9,7,17,12,20,7,19,13,16,13,16,24,18,17,18,13,15,13,4,13,8,7,6,4,3,3,1,0,0,1,1,0,0,0,0,1,0,0,4831,5940,3533,1488,465,103,15,7,2,0,7798,7346,1213,27,0,147
10000,1.6,16384,2,4,4,128,51,49152.0,38144,41216,0.161458333333,30,126,107.47826087,7,0.497008551807,0,0,0,0,0,0,0,0,0,0,0,0,0,0,0,0,0,0,0,0,0,0,0,0,0,0,0,0,0,0,0,0,0,0,0,0,0,0,0,0,0,0,0,0,0,0,0,0,0,0,0,0,0,0,0,1,1,0,0,1,0,3,1,6,4,13,6,7,10,7,17,8,20,18,16,11,26,21,16,10,19,14,11,10,12,5,4,5,3,1,4,4,3,1,2,0,0,4875,5862,3592,1462,435,129,21,8,0,0,7824,7295,1246,19,0,156
10000,1.6,16384,2,4,4,128,51,49152.0,38144,41216,0.161458333333,30,128,107.192546584,7,0.497008551807,0,0,0,0,0,0,0,0,0,0,0,0,0,0,0,0,0,0,0,0,0,0,0,0,0,0,0,0,0,0,0,0,0,0,0,0,0,0,0,0,0,0,0,0,0,0,0,0,0,0,0,0,0,0,0,0,0,0,3,0,5,4,3,4,5,5,5,8,10,14,18,10,13,20,19,21,10,11,21,23,14,14,8,6,12,7,4,6,6,5,3,1,1,1,0,0,1,4822,5907,3655,1407,431,139,19,4,0,0,7825,7299,1239,21,0,160
10000,1.6,16384,2,4,4,128,50,49152.0,38144,41984,0.145833333333,82,126,105.399390244,7,0.497008551807,0,0,0,0,0,0,0,0,0,0,0,0,0,0,0,0,0,0,0,0,0,0,0,0,0,0,0,0,0,0,0,0,0,0,0,0,0,0,0,0,0,0,0,0,0,0,0,0,0,0,1,0,0,0,0,3,1,1,5,5,2,8,7,1,9,4,8,11,22,13,11,11,26,10,16,19,21,21,16,14,9,5,4,8,10,6,5,2,5,4,1,1,1,0,1,0,0,4849,5916,3519,1517,454,99,26,4,0,0,7817,7325,1216,26,0,165
10000,1.6,16384,2,4,4,128,52,49152.0,38144,40448,0.177083333333,7,126,109.607594937,7,0.497008551807,0,0,0,0,0,0,0,0,0,0,0,0,0,0,0,0,0,0,0,0,0,0,0,0,0,0,0,0,0,0,0,0,0,0,0,0,0,0,0,0,0,0,0,0,0,0,0,0,0,0,0,0,0,0,0,0,0,0,1,0,0,0,2,4,3,2,8,4,4,6,5,18,15,16,19,14,22,8,14,16,13,24,8,21,12,8,14,5,6,6,2,5,5,2,3,0,0,4859,5842,3656,1445,428,129,22,3,0,0,7804,7340,1212,28,0,152
10000,1.6,16384,2,4,4,128,49,49152.0,38144,42880,0.127604166667,34,126,103.059701493,7,0.497008551807,0,0,1,0,0,0,0,0,0,0,0,0,0,0,0,0,0,0,0,0,0,0,0,0,0,0,0,0,0,0,0,0,0,0,0,0,0,0,0,0,0,0,0,0,0,0,0,0,0,0,0,2,0,1,4,3,2,4,4,3,3,4,7,11,10,14,17,13,21,19,15,14,21,7,17,15,21,15,12,7,10,8,8,5,5,1,5,1,0,2,0,2,0,0,1,0,0,4845,5921,3558,1467,439,127,22,5,0,0,7826,7294,1246,18,0,160
10000,1.6,16384,2,4,4,128,50,49152.0,38144,41984,0.145833333333,65,126,105.609756098,7,0.497008551807,0,0,0,0,0,0,0,0,0,0,0,0,0,0,0,0,0,0,0,0,0,0,0,0,0,0,0,0,0,0,0,0,0,1,0,0,0,0,0,0,0,0,0,0,0,0,0,0,0,0,0,0,0,0,0,0,0,1,2,1,0,7,7,5,4,9,11,14,19,12,13,16,17,22,19,22,15,16,15,13,9,11,13,13,7,4,4,0,0,1,1,1,1,1,1,0,0,4850,5844,3664,1445,441,116,22,2,0,0,7812,7335,1207,30,0,161
10000,1.6,16384,2,4,4,128,50,49152.0,38144,41984,0.145833333333,60,128,105.109756098,7,0.497008551807,0,0,0,0,0,0,0,0,0,0,0,0,0,0,0,0,0,0,0,0,0,0,0,0,0,0,0,0,1,0,0,0,0,0,0,0,0,0,0,0,0,0,0,0,0,0,0,0,0,0,0,0,0,0,0,0,1,1,2,2,4,7,6,4,8,12,10,7,17,16,24,16,21,19,14,19,15,17,18,15,7,7,2,7,6,5,2,4,2,0,0,5,2,1,1,0,1,4795,5967,3569,1477,439,117,17,3,0,0,7754,7426,1180,24,0,142
10000,1.6,16384,2,4,4,128,48,49152.0,38144,43776,0.109375,31,127,100.973684211,7,0.497008551807,0,0,0,0,0,0,0,0,0,0,0,0,0,0,0,0,0,0,0,0,0,0,0,0,0,0,0,0,0,0,0,0,0,0,0,0,0,0,0,0,0,0,0,0,0,0,0,0,0,1,2,0,1,2,1,0,2,5,9,6,7,11,7,17,10,13,17,28,17,20,25,21,17,16,14,13,12,8,8,7,5,6,2,3,1,3,2,1,0,0,0,0,0,0,0,1,0,4815,5925,3598,1479,428,113,19,7,0,0,7816,7309,1233,26,0,147
10000,1.6,16384,2,4,4,128,49,49152.0,38144,42880,0.127604166667,37,124,103.149253731,7,0.497008551807,0,0,0,0,0,1,0,0,0,0,0,0,0,0,0,0,0,0,0,0,0,0,0,0,0,0,0,0,0,0,0,0,0,0,0,0,0,0,0,0,0,0,0,0,0,0,0,0,0,0,0,2,0,2,1,1,1,1,5,4,7,2,7,2,12,10,20,21,11,25,25,14,18,17,20,20,13,14,9,4,11,9,7,5,3,4,2,2,0,0,1,1,1,0,0,0,0,4815,5908,3627,1463,429,122,17,3,0,0,7829,7307,1220,28,0,169
10000,1.6,16384,2,4,4,128,50,49152.0,38144,41984,0.145833333333,75,126,105.762195122,7,0.497008551807,0,0,0,0,0,0,0,0,0,0,0,0,0,0,0,0,0,0,0,0,0,0,0,0,0,0,0,0,0,0,0,0,0,0,0,0,0,0,0,0,0,0,0,1,0,0,0,1,0,0,0,0,0,0,1,2,1,1,1,5,3,3,6,5,7,8,4,9,11,12,16,23,20,26,16,18,13,15,9,18,13,10,10,8,9,4,1,6,4,2,2,1,0,0,3,0,0,4850,5828,3662,1487,434,94,23,6,0,0,7818,7319,1226,21,0,166
10000,1.6,16384,2,4,4,128,48,49152.0,38144,43776,0.109375,24,126,101.114035088,7,0.497008551807,0,0,0,0,0,0,0,0,0,0,0,0,0,0,0,0,0,0,0,0,0,0,0,0,0,0,0,0,0,0,0,0,0,0,0,0,0,0,0,0,0,0,0,0,0,0,0,0,0,0,0,0,0,2,2,3,4,7,6,9,6,10,7,14,14,17,22,16,10,23,19,16,17,20,19,14,17,6,11,6,6,4,6,1,1,2,0,1,0,0,2,0,0,0,1,0,0,4852,5877,3620,1434,459,114,22,6,0,0,7822,7309,1231,22,0,163
10000,1.6,16384,2,4,4,128,52,49152.0,38144,40448,0.177083333333,6,128,109.382911392,7,0.497008551807,0,0,0,0,0,0,0,0,0,0,0,0,0,0,0,0,0,0,0,0,0,0,0,0,0,0,0,0,0,0,0,0,0,0,0,0,0,0,0,0,0,0,0,0,0,0,0,0,0,0,0,0,0,0,0,0,0,0,1,0,1,0,2,4,5,4,5,4,7,7,8,9,16,13,18,17,18,21,18,14,9,13,14,16,12,13,7,13,6,6,2,6,2,0,2,1,1,4823,5907,3604,1465,468,88,26,3,0,0,7780,7401,1173,30,0,163
10000,1.6,16384,2,4,4,128,49,49152.0,38144,42880,0.127604166667,40,126,103.128358209,7,0.497008551807,0,0,0,0,0,0,0,0,1,0,0,0,0,0,0,0,0,0,0,0,0,0,0,0,0,0,0,0,0,0,0,0,0,0,0,0,0,0,0,0,0,0,0,0,0,0,0,0,0,0,1,0,1,0,1,3,0,4,3,4,12,4,9,7,13,12,10,16,14,21,16,15,23,20,19,10,18,16,8,9,9,6,5,7,3,5,4,0,1,1,1,2,0,0,1,0,0,4859,5909,3543,1453,481,117,17,5,0,0,7874,7237,1242,31,0,186
